<?xml version="1.0" encoding="utf-8"?>
<!-- Generator: Adobe Illustrator 21.0.2, SVG Export Plug-In . SVG Version: 6.00 Build 0)  -->
<svg version="1.1" id="Слой_1" xmlns="http://www.w3.org/2000/svg" xmlns:xlink="http://www.w3.org/1999/xlink" x="0px" y="0px"
	 viewBox="0 0 775 661" style="enable-background:new 0 0 775 661;" xml:space="preserve">
<style type="text/css">
	.st0{display:none;fill:#FFFFFF;}
</style>
<g>
	<path class="st0" d="M197,361.6c0-147.8,0-295.6,0-443.6c147.5,0,295,0,442.6,0c0,147.8,0,295.7,0,443.6
		C492.1,361.6,344.6,361.6,197,361.6z M419.1,4.2c-3.7,0-7.5-0.1-11.2,0c-22.5,0.7-44.3,4.4-64.9,13.9
		c-30.8,14.2-49.8,37.9-57.2,71.1c-3.7,16.8-2.6,33.8-2.9,50.7c0,2.7,1.6,3.4,3.5,4c15.2,5.1,30.4,10.6,45.8,15.2
		c24.2,7.1,48.7,12.3,74,13.9c23.4,1.5,46.5-1.4,69.3-6.4c26-5.7,51.3-13.6,75.9-23.9c1.4-0.6,3.4-2.3,3.4-3.5
		c-0.6-15.5,0.2-31.3-2.6-46.4c-6.6-36.8-28.5-61.9-62.7-76.5C467,6.9,443.2,4,419.1,4.2z M272.6,273.4c4.8-17.2,8.2-23.2,18.9-29
		c7.8-4.2,16-7.9,24.4-10.5c24.5-7.6,50-9.7,75.4-10.2c25.8-0.5,51.8,0.3,77.6,1.6c20.1,1,40,4.5,58.9,11.8
		c16.5,6.4,31.6,14.5,33.9,35.2c3.6-0.9,7-1.6,10.5-2.5c18.4-5.2,35.8-12.5,49.7-26.3c17.4-17.4,20.3-41.6,6.1-61.6
		c-12.3-17.3-28.7-27.2-50.8-21.5c-13.5,3.5-26.7,7.9-39.8,12.5c-32.3,11.4-65.4,18.9-99.7,20c-18.2,0.6-36.5,0.1-54.7-0.8
		c-23.2-1.2-46-4.9-68.2-11.7c-16.9-5.1-33.4-11.4-50.1-17.1c-8.3-2.8-16.8-5.2-25.7-3.1c-19.6,4.6-36.8,25.3-38.1,46.3
		c-1.4,21.8,9.6,37.2,26.7,49C241,264.9,256.4,269.9,272.6,273.4z"/>
	<path d="M419.1,4.2C443.2,4,467,6.9,489.4,16.4c34.2,14.5,56.2,39.7,62.7,76.5c2.7,15.1,2,30.9,2.6,46.4c0,1.1-2,2.9-3.4,3.5
		c-24.6,10.3-49.9,18.2-75.9,23.9c-22.9,5-45.9,7.9-69.3,6.4c-25.2-1.6-49.8-6.8-74-13.9c-15.4-4.5-30.5-10.1-45.8-15.2
		c-2-0.7-3.6-1.3-3.5-4c0.3-16.9-0.8-33.9,2.9-50.7c7.3-33.1,26.4-56.9,57.2-71.1C363.4,8.7,385.3,5,407.8,4.3
		C411.6,4.1,415.3,4.2,419.1,4.2z"/>
	<path d="M272.6,273.4c-16.2-3.5-31.6-8.5-45.2-17.9c-17.1-11.8-28.1-27.2-26.7-49c1.4-21,18.5-41.6,38.1-46.3
		c8.9-2.1,17.4,0.3,25.7,3.1c16.7,5.7,33.2,11.9,50.1,17.1c22.2,6.8,45.1,10.6,68.2,11.7c18.2,0.9,36.5,1.4,54.7,0.8
		c34.3-1.1,67.4-8.6,99.7-20c13.1-4.6,26.4-9,39.8-12.5c22.1-5.7,38.5,4.1,50.8,21.5c14.2,19.9,11.3,44.2-6.1,61.6
		c-13.9,13.9-31.2,21.1-49.7,26.3c-3.4,1-6.9,1.7-10.5,2.5c-2.3-20.7-17.4-28.8-33.9-35.2c-18.9-7.3-38.8-10.8-58.9-11.8
		c-25.8-1.3-51.7-2.1-77.6-1.6c-25.4,0.5-50.9,2.6-75.4,10.2c-8.4,2.6-16.6,6.3-24.4,10.5C280.8,250.2,277.4,256.2,272.6,273.4z"/>
</g>
<path d="M543.2,400.5c-0.7,2.6-1.2,4.9-1.9,7.2c-6.7,19.2-20.2,31.2-39.7,36.8c-7.1,2-14.3,2.9-21.7,2.9c-18.1,0-34.9-4.5-50.2-14.2
	c-3.7-2.3-6.8-5.3-10.2-8.2c-0.2-0.2-0.4-0.4-0.7-0.7c-1.4,1.2-2.7,2.6-4.2,3.7c-10,8.3-21.6,13.5-34.2,16.6
	c-6.8,1.7-13.7,2.7-20.7,2.7c-11.6,0-23.1-1.6-33.7-6.7c-16.9-7.9-27.3-21-31.4-39.2c0-0.2-0.1-0.4-0.1-0.7c0-0.1,0-0.2,0-0.7
	c0.4,0.5,0.7,0.8,1.1,1.2c3.7,4.2,7.7,8.2,12.5,11.3c2.9,1.8,6,3.4,9.4,3.8c4.4,0.5,8.3-0.5,12.2-2.7c5.2-2.9,9.8-6.4,14.5-10
	c9-7.1,18.8-12.6,30.3-14.6c15.7-2.9,29.4,1.5,41.2,12.1c1.1,1,2.2,2,3.2,3c1.8-1.6,3.7-3.5,5.6-5.2c8.9-7.2,19-11,30.4-10.9
	c8.2,0.1,15.8,2.3,23.1,5.7c6.4,3.1,12.2,7.2,17.9,11.6c4.1,3.2,8.6,6,13.1,8.6c6.3,3.7,12.6,3.1,18.8-0.4
	c5.3-3.1,9.7-7.2,13.8-11.7c0.4-0.4,0.8-1,1.2-1.4C542.7,400.6,542.7,400.6,543.2,400.5z"/>
<g>
	<g>
		<path d="M284.1,318.6c0-8.7,1.6-16.8,4.9-24.5s7.7-14.3,13.3-19.9c5.6-5.6,12.2-10,19.8-13.3c7.6-3.3,15.8-4.9,24.6-4.9
			c10,0,19.4,2.3,28.3,6.9c8.8,4.6,16.1,10.6,21.8,18.1v-47.5h12.5v85c0,8.8-1.6,17-4.9,24.6s-7.7,14.2-13.3,19.8
			c-5.6,5.6-12.2,10-19.9,13.3c-7.7,3.3-15.8,4.9-24.5,4.9c-8.8,0-17-1.6-24.6-4.9s-14.2-7.7-19.8-13.3c-5.6-5.6-10-12.2-13.3-19.8
			C285.7,335.6,284.1,327.4,284.1,318.6z M296.6,318.6c0,6.8,1.3,13.3,4,19.4s6.3,11.4,10.8,15.9s9.8,8.1,15.9,10.8
			c6.1,2.7,12.5,4,19.4,4c6.8,0,13.3-1.3,19.4-4s11.4-6.3,15.9-10.8s8.1-9.8,10.8-15.9c2.7-6.1,4-12.5,4-19.4c0-6.8-1.3-13.3-4-19.4
			s-6.3-11.4-10.8-15.9s-9.8-8.1-15.9-10.8c-6.1-2.7-12.5-4-19.4-4c-6.8,0-13.3,1.3-19.4,4s-11.4,6.3-15.9,10.8s-8.1,9.8-10.8,15.9
			C297.9,305.3,296.6,311.8,296.6,318.6z"/>
		<path d="M346.7,385.1c-9.4,0-18.2-1.8-26.2-5.2c-8.1-3.5-15.2-8.3-21-14.1c-5.9-5.9-10.6-13-14.1-21c-3.5-7.9-5.2-16.7-5.2-26.1
			c0-9.3,1.7-17.9,5.2-26.1c3.5-8.1,8.2-15.3,14.1-21.2c5.9-5.9,12.9-10.6,21-14.1c8-3.5,16.8-5.2,26.2-5.2
			c10.6,0,20.7,2.5,30.1,7.3c6,3.1,11.3,6.9,16,11.3v-41.1h20.5v89c0,9.4-1.8,18.2-5.2,26.2c-3.5,8.1-8.3,15.2-14.1,21
			c-5.9,5.9-13,10.7-21.2,14.1C364.6,383.4,356,385.1,346.7,385.1z M346.7,260c-8.3,0-16,1.5-23,4.6c-7.2,3.1-13.4,7.3-18.6,12.5
			c-5.3,5.3-9.3,11.4-12.5,18.6c-3.1,7.2-4.6,14.7-4.6,22.9c0,8.3,1.5,16,4.6,22.9c3.1,7.2,7.3,13.4,12.5,18.6s11.4,9.4,18.6,12.5
			c7,3,14.7,4.6,23,4.6c8.2,0,15.7-1.5,22.9-4.6c7.3-3.1,13.4-7.2,18.6-12.5c5.2-5.2,9.3-11.4,12.5-18.6c3-7,4.6-14.7,4.6-23v-81
			h-4.5v55.4l-7.2-9.5c-5.3-6.9-12.1-12.6-20.5-17C364.8,262.1,356.1,260,346.7,260z M346.7,372.7c-7.5,0-14.4-1.4-21-4.3
			c-6.5-2.9-12.3-6.8-17.1-11.6c-4.8-4.8-8.7-10.6-11.6-17.1s-4.3-13.6-4.3-21s1.5-14.5,4.3-21c2.9-6.5,6.8-12.3,11.6-17.1
			c4.8-4.8,10.6-8.7,17.1-11.6s13.6-4.3,21-4.3c7.5,0,14.4,1.4,21,4.3c6.5,2.9,12.3,6.8,17.1,11.6c4.8,4.8,8.7,10.6,11.6,17.1
			s4.3,13.6,4.3,21c0,7.5-1.4,14.4-4.3,21c-2.9,6.5-6.8,12.3-11.6,17.1c-4.8,4.8-10.6,8.7-17.1,11.6
			C361.2,371.2,354.1,372.7,346.7,372.7z M346.7,272.5c-6.3,0-12.3,1.2-17.8,3.7c-5.6,2.5-10.6,5.8-14.7,10
			c-4.1,4.1-7.5,9.1-10,14.7c-2.4,5.5-3.7,11.5-3.7,17.8s1.2,12.3,3.7,17.8c2.5,5.6,5.8,10.6,10,14.7c4.1,4.1,9.1,7.5,14.7,10
			s11.4,3.7,17.8,3.7c6.3,0,12.3-1.2,17.8-3.7c5.6-2.5,10.6-5.8,14.7-10c4.1-4.1,7.5-9.1,10-14.7s3.7-11.4,3.7-17.8
			c0-6.3-1.2-12.3-3.7-17.8c-2.5-5.6-5.8-10.6-10-14.7c-4.1-4.1-9.1-7.5-14.7-10S353.1,272.5,346.7,272.5z"/>
	</g>
</g>
<g>
	<g>
		<path d="M488.6,255.8c8.7,0,16.8,1.6,24.5,4.9c7.7,3.3,14.3,7.7,19.9,13.3c5.6,5.6,10,12.2,13.3,19.9c3.3,7.7,4.9,15.8,4.9,24.5
			c0,8.8-1.6,17-4.9,24.6c-3.3,7.6-7.7,14.2-13.3,19.8c-5.6,5.6-12.2,10-19.9,13.3s-15.8,4.9-24.5,4.9c-8.8,0-17-1.6-24.6-4.9
			s-14.2-7.7-19.8-13.3c-5.6-5.6-10-12.2-13.3-19.8c-3.3-7.6-4.9-15.8-4.9-24.6v-85h12.5v47.5c5.7-7.5,12.9-13.5,21.8-18.1
			C469.2,258.1,478.6,255.8,488.6,255.8z M488.6,368.3c6.8,0,13.3-1.3,19.4-4c6.1-2.7,11.4-6.3,15.9-10.8s8.1-9.8,10.8-15.9
			s4-12.5,4-19.4c0-6.8-1.3-13.3-4-19.4s-6.3-11.4-10.8-15.9s-9.8-8.1-15.9-10.8c-6.1-2.7-12.5-4-19.4-4c-6.8,0-13.3,1.3-19.4,4
			s-11.4,6.3-15.9,10.8s-8.1,9.8-10.8,15.9c-2.7,6.1-4,12.5-4,19.4c0,6.8,1.3,13.3,4,19.4s6.3,11.4,10.8,15.9s9.8,8.1,15.9,10.8
			C475.3,366.9,481.8,368.3,488.6,368.3z"/>
		<path d="M488.6,385c-9.4,0-18.2-1.8-26.2-5.2c-8.1-3.5-15.2-8.3-21-14.1c-5.9-5.9-10.6-12.9-14.1-21c-3.5-8-5.2-16.8-5.2-26.2v-89
			h20.5v41.1c4.6-4.4,9.9-8.1,16-11.2c9.3-4.9,19.5-7.4,30.1-7.4c9.3,0,17.9,1.7,26.1,5.2c8.1,3.5,15.3,8.2,21.2,14.1
			s10.7,13,14.1,21.2c3.5,8.2,5.2,16.7,5.2,26.1s-1.8,18.2-5.2,26.2c-3.5,8.1-8.3,15.2-14.1,21c-5.9,5.9-13,10.7-21.2,14.1
			C506.5,383.3,497.9,385,488.6,385z M430,237.4v81c0,8.3,1.5,16,4.6,23c3.1,7.2,7.3,13.4,12.5,18.6s11.4,9.4,18.6,12.5
			c7,3,14.7,4.6,23,4.6c8.2,0,15.7-1.5,22.9-4.6c7.3-3.1,13.4-7.2,18.6-12.5c5.2-5.2,9.4-11.4,12.5-18.6c3-7,4.6-14.7,4.6-23
			c0-8.2-1.5-15.7-4.6-22.9c-3.1-7.3-7.2-13.4-12.5-18.6c-5.3-5.3-11.4-9.3-18.6-12.5c-7.2-3.1-14.7-4.6-22.9-4.6
			c-9.5,0-18.1,2.1-26.4,6.5c-8.4,4.3-15.1,9.9-20.5,17l-7.2,9.5v-55.4H430z M488.6,372.3c-7.2,0-14.2-1.5-21-4.3
			c-6.6-2.9-12.3-6.8-17.2-11.7c-4.8-4.8-8.7-10.6-11.6-17.1s-4.3-13.6-4.3-21c0-7.5,1.4-14.4,4.3-21c2.9-6.5,6.8-12.3,11.6-17.1
			c4.8-4.8,10.6-8.7,17.1-11.6s13.6-4.3,21-4.3c7.5,0,14.4,1.4,21,4.3c6.5,2.9,12.3,6.8,17.1,11.6c4.8,4.8,8.7,10.6,11.6,17.1
			c2.9,6.5,4.3,13.6,4.3,21c0,7.5-1.4,14.4-4.3,21c-2.9,6.5-6.8,12.3-11.6,17.1c-4.8,4.8-10.6,8.7-17.1,11.6
			C503.1,370.8,496,372.3,488.6,372.3z M488.6,272.1c-6.3,0-12.3,1.2-17.8,3.7c-5.6,2.5-10.6,5.8-14.7,10c-4.1,4.1-7.5,9.1-10,14.7
			s-3.7,11.4-3.7,17.8c0,6.3,1.2,12.3,3.7,17.8c2.5,5.6,5.8,10.6,10,14.7c4.1,4.1,9.1,7.5,14.7,10c5.7,2.4,11.7,3.7,17.8,3.7
			c6.3,0,12.3-1.2,17.8-3.7c5.6-2.5,10.6-5.8,14.7-10c4.1-4.1,7.5-9.1,10-14.7s3.7-11.4,3.7-17.8c0-6.3-1.2-12.3-3.7-17.8
			c-2.5-5.6-5.8-10.6-10-14.7c-4.1-4.1-9.1-7.5-14.7-10C500.8,273.3,495,272.1,488.6,272.1z"/>
	</g>
</g>
<path d="M567.4,380.6c0.3,3.8,0.6,7.5,0.7,11.4c0.4,16.9-1.9,33.4-7,49.5c-2.2,6.8-4.7,13.4-8,19.7c-2,3.9-4.5,7.5-6.8,11.3
	c-3.9,6.5-7.5,13.3-10.5,20.3c-1.8,4.3-2.4,8.7-3,13.2c-1.2,8.1-2.3,16.1-3.5,24.2c-0.5,3.3-1.6,6.4-3.3,9.3
	c-0.3,0.6-0.7,1.1-1.2,1.8c-0.4-6.2-0.3-12.2-2.2-17.9c-1.6,19.5-10.4,35.1-24.8,47.8c1.3-4.6,3-9.1,3.5-13.9
	c-6.1,13.4-13.3,26.1-24.1,36.5c0.1-1.8,0.3-3.6,0.3-5.4s-0.3-3.5-0.4-5.5c-1.2,1.2-2.3,2.1-3.3,3.2c-3.8,4.5-7.5,9.1-11.2,13.8
	c-3.4,4.1-7.1,7.7-11.6,10.6c-2.3,1.5-4.9,1.9-7.7,2.1c-4.2,0.2-8.4,0.7-12.5,1.8c-1.4,0.4-2.9,0.8-3.9,2.2
	c-2.4-2.2-4.2-4.9-8.3-4.9c-4,0-5.9,2.5-8.2,4.8c-2-2.1-4.8-2.5-7.5-2.9c-3.9-0.6-7.8-0.8-11.7-1.3c-1.4-0.2-2.9-0.7-4-1.3
	c-5-2.7-9.1-6.5-12.6-11.1c-4.1-5.5-8.4-10.8-13.1-15.8c-0.3-0.4-0.7-0.8-1.1-1.2c-0.7,3.6-1,7.1-0.4,10.7
	c-10.7-10.2-17.9-22.7-24-36c0.5,4.7,2.1,9.1,3.4,13.5c-14.4-12.7-23.2-28.3-24.9-47.7c-0.3,1-0.7,1.9-0.8,2.9
	c-0.4,4.4-0.8,8.6-1.2,13c-0.1,0.5-0.1,1.1-0.1,1.6c-0.1,0-0.2,0.1-0.3,0.1c-0.8-1.4-1.5-2.8-2.2-4.3c-1.8-4.3-2.7-8.9-3.3-13.4
	c-1-7.1-1.9-14.3-2.9-21.6c-0.8-5.6-3-10.7-5.5-15.8c-3.9-8-8.6-15.4-13.1-23.1c-2.4-4.1-4.3-8.6-6-13c-4.9-12.5-7.9-25.5-9.2-38.9
	c-0.9-8.8-1.1-17.6-0.3-26.4c0.1-1.4,0.3-2.8,0.5-4.4c0.7,7.5,3.9,13.8,7.5,20c4.9,8.3,10.7,15.9,16.9,23.3c0.3,0.3,0.6,0.5,0.8,0.8
	c9.3,6.1,18,13,25.8,21c5.4,5.5,10.2,11.4,13.7,18.4c0.8,1.8,1.5,3.6,2.2,5.5c0.3,0.6,0.5,0.9,1.1,1.2c8.8,3.8,17.4,8.1,25.1,13.8
	c2.4,1.8,4.6,3.9,6.8,6c1.7,1.6,2.9,3.7,3.8,5.9c1.3,2.9,3.2,5.2,6.5,5.7c2.2,0.3,4-0.4,5.9-1.5c3.6-2.1,6.5-5,8.9-8.3
	c2.2-2.9,4.1-5.9,6.3-8.8c1-1.4,2.1-2.9,3.4-4.1c2.8-2.5,6.2-2.9,9.4-0.9c1.6,1,3,2.3,4.5,3.4c0.9-0.8,1.8-1.8,2.9-2.5
	c4.4-3.3,8.8-2.8,12.3,1.5c1.1,1.3,2,2.7,2.9,4.1c3,4.6,6.3,9.1,10.4,12.8c1.9,1.8,4,3.3,6.6,4c2.8,0.8,5.3,0.2,7.2-1.9
	c0.8-0.9,1.7-1.9,2.1-3.1c1.6-4,4.4-7.1,7.6-9.8c6.3-5.3,13.4-9.2,20.7-12.8c2.5-1.3,5.2-2.3,7.7-3.6c0.3-0.2,0.7-0.4,0.8-0.8
	c2.3-7.4,6.6-13.5,11.6-19.3c8.1-9.4,17.7-17.3,28-24.3c1.8-1.3,3.5-2.7,4.9-4.4c6.3-7.7,12.2-15.7,16.9-24.5
	c2.3-4.4,4.4-9.1,5.3-14.1c0.1-0.7,0.2-1.3,0.2-1.9C567.2,380.6,567.3,380.6,567.4,380.6z"/>
</svg>
