<?xml version="1.0" encoding="utf-8"?>
<!-- Generator: Adobe Illustrator 21.0.2, SVG Export Plug-In . SVG Version: 6.00 Build 0)  -->
<svg version="1.1" id="Слой_1" xmlns="http://www.w3.org/2000/svg" xmlns:xlink="http://www.w3.org/1999/xlink" x="0px" y="0px"
	 viewBox="0 0 2999 2219" style="enable-background:new 0 0 2999 2219;" xml:space="preserve">
<style type="text/css">
	.st0{stroke:#000000;stroke-width:2;stroke-miterlimit:10;}
	.st1{stroke:#000000;stroke-miterlimit:10;}
	.st2{stroke:#000000;stroke-width:3;stroke-miterlimit:10;}
	.st3{display:none;fill:#FFFFFF;}
</style>
<g>
	<path class="st0" d="M1107.2,1170.1c0-33,6.2-64.1,18.6-93.3c12.4-29.2,29.2-54.4,50.5-75.7s46.3-38.1,75.2-50.5
		c28.9-12.4,60.1-18.6,93.8-18.6c38.1,0,73.9,8.7,107.6,26.2c33.6,17.5,61.2,40.5,82.8,69V846.4h47.6v323.7
		c0,33.6-6.2,64.9-18.6,93.8s-29.2,53.9-50.5,75.2c-21.3,21.3-46.5,38.1-75.7,50.5s-60.3,18.6-93.3,18.6c-33.6,0-64.9-6.2-93.8-18.6
		s-53.9-29.2-75.2-50.5c-21.3-21.3-38.1-46.3-50.5-75.2C1113.4,1235,1107.2,1203.7,1107.2,1170.1z M1154.8,1170.1
		c0,26,5.1,50.6,15.2,73.8c10.1,23.2,23.8,43.3,40.9,60.4s37.3,30.8,60.4,40.9c23.2,10.2,47.7,15.2,73.8,15.2
		c26,0,50.6-5.1,73.8-15.2c23.2-10.1,43.3-23.8,60.4-40.9s30.8-37.3,40.9-60.4c10.1-23.2,15.2-47.7,15.2-73.8
		c0-26-5.1-50.6-15.2-73.8c-10.2-23.2-23.8-43.3-40.9-60.4s-37.3-30.8-60.4-40.9c-23.2-10.1-47.8-15.2-73.8-15.2
		s-50.6,5.1-73.8,15.2c-23.2,10.2-43.3,23.8-60.4,40.9c-17.1,17.1-30.8,37.3-40.9,60.4C1159.9,1119.5,1154.8,1144.1,1154.8,1170.1z"
		/>
</g>
<g>
	<path class="st0" d="M1885.9,930.9c33,0,64.1,6.2,93.3,18.6c29.2,12.4,54.4,29.2,75.7,50.5s38.1,46.5,50.5,75.7
		s18.6,60.3,18.6,93.3c0,33.6-6.2,64.9-18.6,93.8c-12.4,28.9-29.2,53.9-50.5,75.2c-21.3,21.3-46.5,38.1-75.7,50.5
		s-60.3,18.6-93.3,18.6c-33.6,0-64.9-6.2-93.8-18.6s-53.9-29.2-75.2-50.5c-21.3-21.3-38.1-46.3-50.5-75.2
		c-12.4-28.9-18.6-60.1-18.6-93.8V845.3h47.6v180.9c21.6-28.6,49.2-51.6,82.8-69C1812,939.7,1847.8,930.9,1885.9,930.9z
		 M1885.9,1359.3c26,0,50.6-5.1,73.8-15.2c23.2-10.1,43.3-23.8,60.4-40.9s30.8-37.3,40.9-60.4c10.1-23.2,15.2-47.7,15.2-73.8
		c0-26-5.1-50.6-15.2-73.8c-10.2-23.2-23.8-43.3-40.9-60.4s-37.3-30.8-60.4-40.9c-23.2-10.1-47.8-15.2-73.8-15.2
		s-50.6,5.1-73.8,15.2c-23.2,10.2-43.3,23.8-60.4,40.9c-17.1,17.1-30.8,37.3-40.9,60.4c-10.2,23.2-15.2,47.8-15.2,73.8
		s5.1,50.6,15.2,73.8c10.1,23.2,23.8,43.3,40.9,60.4s37.3,30.8,60.4,40.9C1835.3,1354.2,1859.9,1359.3,1885.9,1359.3z"/>
</g>
<g>
	<path class="st1" d="M2183.6,1163.7c0-113.9,88.8-206.1,199.4-206.1c105.6,0,189.3,83.8,197.7,191v0.8v2.5
		c0,10.9-9.2,18.4-20.1,18.4h-336.8c4.2,89.6,74.6,157.5,159.2,157.5c54.5,0,104.7-28.5,132.4-74.6c5.9-10.1,18.4-11.7,26.8-6.7
		c9.2,6.7,12.6,18.4,6.7,28.5c-35.2,56.1-96.3,93-165.9,93C2272.4,1368.1,2183.6,1276,2183.6,1163.7z M2226.3,1131h310.8
		c-13.4-77.1-78.7-133.2-154.1-133.2C2305.9,997.8,2241.4,1053.1,2226.3,1131z"/>
</g>
<g>
	<path class="st2" d="M2767.1,1361c-2.5-2.5-5-5-6.7-9.2l-154.1-366.9c-4.2-10.1,0.8-21.8,10.1-26c10.1-4.2,22.6,0.8,26,10.9
		l136.5,323.4l136.5-323.4c3.4-10.1,15.9-15.1,26-10.9c10.1,4.2,14.2,15.9,10.1,26l-153.3,363.6c-0.8,3.4-2.5,6.7-5,10.1
		c-3.4,4.2-9.2,5.9-13.4,5.9c-2.5,0-4.2,0-6.7-0.8c-0.8,0-0.8,0-1.7-0.8C2769.6,1362.6,2768.8,1361.8,2767.1,1361z"/>
</g>
<g>
	<path class="st2" d="M206.5,1400.6c-4.2-1.7-6.7-5-8.4-9.2L44,1024.5c-4.2-10.1,0.8-21.8,10.1-26c10.1-4.2,22.6,0.8,26,10.9
		l136.5,323.4l94.7-225.3c3.4-7.5,11.7-12.6,19.3-12.6c8.4,0,16.8,5,20.1,12.6l94.7,225.3l135.7-323.4c4.2-10.1,16.8-15.1,26-10.9
		c10.1,4.2,15.1,15.9,10.9,26l-153.3,365.2c-1.7,4.2-4.2,7.5-7.5,10.1c-3.4,2.5-6.7,4.2-10.1,4.2h-1.7h-2.5
		c-6.7-0.8-14.2-5.9-15.9-12.6l-0.8-0.8l-95.5-227L236,1389.8c0,0-0.8,0.8-0.8,1.7c-2.5,7.5-10.9,12.6-17.6,12.6
		c-2.5,0-5-0.8-7.5-1.7C208.2,1402.3,207.3,1401.4,206.5,1400.6z"/>
</g>
<g>
	<path class="st1" d="M649,1202.5c0-113.9,88.8-206.1,199.4-206.1c105.6,0,189.3,83.8,197.7,191v0.8v2.5c0,10.9-9.2,18.4-20.1,18.4
		H689.2c4.2,89.6,74.6,157.5,159.2,157.5c54.5,0,104.7-28.5,132.4-74.6c5.9-10.1,18.4-11.7,26.8-6.7c9.2,6.7,12.6,18.4,6.7,28.5
		c-35.2,56.1-96.3,93-165.9,93C737.8,1406.9,649,1314.8,649,1202.5z M691.7,1169.8h310.8c-13.4-77.1-78.7-133.2-154.1-133.2
		C771.3,1036.6,706.8,1091.9,691.7,1169.8z"/>
</g>
<path d="M2010.9,1438.1c-2,8.1-3.7,15.5-6.1,22.6c-21.2,60.6-63.6,98.3-124.9,115.8c-22.2,6.4-45.1,9.1-68.4,9.1
	c-56.9,0-110.1-14.1-158.3-44.8c-11.4-7.4-21.6-16.8-32.3-25.6c-0.7-0.7-1.3-1.3-2.4-2c-4.4,4-8.8,8.1-13.5,11.8
	c-31.3,26.3-68,42.4-107.8,52.2c-21.6,5.4-43.1,8.8-65.3,8.8c-36.7,0-72.7-5.1-106.1-20.9c-53.2-24.9-85.9-66.3-98.7-123.2
	c0-0.7-0.3-1.3-0.3-2c0-0.3,0-0.7,0-2.4c1.3,1.7,2.4,2.7,3.4,3.7c11.8,13.5,24.2,25.9,39.4,35.7c9.1,5.7,18.9,10.8,29.6,12.1
	c13.8,1.7,26.3-1.7,38.4-8.4c16.2-9.1,31-20.2,45.5-31.3c28.3-22.2,59.3-39.7,95.3-46.1c49.5-9.1,92.6,4.7,129.6,38
	c3.4,3,6.7,6.4,10.1,9.4c5.7-5.1,11.4-11.1,17.5-16.2c27.9-22.6,59.9-34.7,96-34.3c25.6,0.3,49.8,7.4,72.7,18.2
	c20.2,9.8,38.4,22.6,56.2,36.4c12.8,10.1,26.9,18.9,41.1,26.9c19.9,11.4,39.7,9.8,59.3-1.3c16.8-9.8,30.6-22.9,43.4-37
	c1.3-1.3,2.7-3,4-4.4C2009.2,1438.7,2009.5,1438.7,2010.9,1438.1z"/>
<g>
	<path class="st3" d="M822,1322.6c0-532.4,0-1064.8,0-1597.6c531.1,0,1062.4,0,1594.1,0c0,532.3,0,1064.9,0,1597.6
		C1885,1322.6,1353.6,1322.6,822,1322.6z M1621.8,35.5c-13.5,0-26.9-0.4-40.4,0.1c-80.9,2.5-159.7,16-233.6,50.1
		c-110.8,51.1-179.4,136.6-205.9,256c-13.4,60.4-9.5,121.6-10.6,182.6c-0.2,9.8,5.7,12.2,12.7,14.6c54.9,18.4,109.3,38.3,164.8,54.7
		c87,25.7,175.6,44.4,266.4,50.1c84.4,5.2,167.3-5.1,249.7-23.1c93.8-20.5,184.9-49,273.3-86.1c5.1-2.1,12.4-8.4,12.2-12.6
		c-2-55.8,0.6-112.6-9.2-167.1c-23.7-132.4-102.6-223.1-226-275.4C1794.3,45,1708.9,34.6,1621.8,35.5z M1094.3,1005.1
		c17.1-61.9,29.5-83.6,68.2-104.3c28-15.1,57.6-28.4,88-37.8c88.3-27.2,180-34.9,271.6-36.6c93.1-1.7,186.4,1.2,279.4,5.9
		c72.5,3.6,144.2,16.1,212.3,42.5c59.5,23,114,52.2,122.2,126.9c12.8-3.1,25.4-5.7,37.7-9.2c66.4-18.8,128.8-45,178.9-94.9
		c62.7-62.5,73-150,21.9-221.8c-44.4-62.4-103.5-97.9-183-77.4c-48.5,12.5-96.2,28.3-143.4,45c-116.4,41.1-235.7,68.1-359.2,72.1
		c-65.6,2.1-131.5,0.2-197.1-3c-83.4-4.1-165.8-17.8-245.7-42.2c-60.8-18.5-120.3-41.2-180.5-61.6c-30-10.2-60.6-18.9-92.7-11.3
		c-70.6,16.7-132.5,91.1-137.4,166.7c-5.1,78.5,34.6,134,96.2,176.4C980.5,974.5,1035.9,992.6,1094.3,1005.1z"/>
	<path d="M1621.8,35.5c87.1-0.8,172.5,9.6,253.5,43.9c123.3,52.3,202.3,143,226,275.4c9.8,54.5,7.2,111.3,9.2,167.1
		c0.2,4.1-7.1,10.4-12.2,12.6c-88.5,37.1-179.6,65.6-273.3,86.1c-82.4,18-165.3,28.3-249.7,23.1c-90.8-5.6-179.4-24.4-266.4-50.1
		c-55.5-16.4-109.9-36.3-164.8-54.7c-7.1-2.4-12.9-4.7-12.7-14.6c1.1-61-2.8-122.2,10.6-182.6c26.5-119.4,95.1-204.9,205.9-256
		c73.9-34.1,152.7-47.6,233.6-50.1C1594.9,35.1,1608.3,35.5,1621.8,35.5z"/>
	<path d="M1094.3,1005.1c-58.4-12.6-113.9-30.6-162.8-64.3c-61.5-42.5-101.2-97.9-96.2-176.4c4.9-75.6,66.8-150,137.4-166.7
		c32.1-7.6,62.7,1.2,92.7,11.3c60.2,20.4,119.7,43,180.5,61.6c79.9,24.4,162.3,38,245.7,42.2c65.6,3.3,131.5,5.1,197.1,3
		c123.5-4,242.8-31,359.2-72.1c47.2-16.7,94.9-32.5,143.4-45c79.6-20.5,138.6,14.9,183,77.4c51.1,71.8,40.8,159.3-21.9,221.8
		c-50.1,49.9-112.5,76.1-178.9,94.9c-12.3,3.5-24.9,6.1-37.7,9.2c-8.2-74.7-62.7-103.9-122.2-126.9
		c-68.2-26.4-139.9-38.9-212.3-42.5c-93-4.7-186.3-7.6-279.4-5.9c-91.6,1.6-183.3,9.4-271.6,36.6c-30.4,9.4-60,22.7-88,37.8
		C1123.9,921.5,1111.5,943.2,1094.3,1005.1z"/>
</g>
</svg>
