<?xml version="1.0" encoding="utf-8"?>
<!-- Generator: Adobe Illustrator 21.0.2, SVG Export Plug-In . SVG Version: 6.00 Build 0)  -->
<svg version="1.1" id="Слой_1" xmlns="http://www.w3.org/2000/svg" xmlns:xlink="http://www.w3.org/1999/xlink" x="0px" y="0px"
	 viewBox="0 0 2999 2219" style="enable-background:new 0 0 2999 2219;" xml:space="preserve">
<g>
	<g>
		<g>
			<path d="M1107.2,1170.1c0-33,6.2-64.1,18.6-93.3c12.4-29.2,29.2-54.4,50.5-75.7s46.3-38.1,75.2-50.5
				c28.9-12.4,60.1-18.6,93.8-18.6c38.1,0,73.9,8.7,107.6,26.2c33.6,17.5,61.2,40.5,82.8,69V846.4h47.6v323.7
				c0,33.6-6.2,64.9-18.6,93.8s-29.2,53.9-50.5,75.2c-21.3,21.3-46.5,38.1-75.7,50.5s-60.3,18.6-93.3,18.6
				c-33.6,0-64.9-6.2-93.8-18.6s-53.9-29.2-75.2-50.5c-21.3-21.3-38.1-46.3-50.5-75.2C1113.4,1235,1107.2,1203.7,1107.2,1170.1z
				 M1154.8,1170.1c0,26,5.1,50.6,15.2,73.8c10.1,23.2,23.8,43.3,40.9,60.4s37.3,30.8,60.4,40.9c23.2,10.2,47.7,15.2,73.8,15.2
				c26,0,50.6-5.1,73.8-15.2c23.2-10.1,43.3-23.8,60.4-40.9s30.8-37.3,40.9-60.4c10.1-23.2,15.2-47.7,15.2-73.8
				c0-26-5.1-50.6-15.2-73.8c-10.2-23.2-23.8-43.3-40.9-60.4s-37.3-30.8-60.4-40.9c-23.2-10.1-47.8-15.2-73.8-15.2
				s-50.6,5.1-73.8,15.2c-23.2,10.2-43.3,23.8-60.4,40.9c-17.1,17.1-30.8,37.3-40.9,60.4C1159.9,1119.5,1154.8,1144.1,1154.8,1170.1
				z"/>
			<path d="M1345.2,1413.2c-34.2,0-66.4-6.4-95.8-19c-29.3-12.6-55.1-29.9-76.8-51.6c-21.6-21.6-39-47.5-51.6-76.8
				c-12.5-29.5-18.9-61.7-18.9-95.8c0-33.5,6.4-65.6,19-95.3c12.6-29.7,29.9-55.7,51.6-77.3c21.6-21.6,47.5-39,76.8-51.6
				c29.4-12.6,61.6-19,95.8-19c38.7,0,75.7,9,109.9,26.8c29.6,15.4,55,35.3,75.5,59.3V841.4h57.6v328.7c0,34.2-6.4,66.4-19,95.8
				c-12.6,29.3-29.9,55.1-51.6,76.8c-21.6,21.6-47.6,39-77.3,51.6C1410.8,1406.8,1378.7,1413.2,1345.2,1413.2z M1345.3,937
				c-32.8,0-63.7,6.1-91.8,18.2c-28.1,12.1-52.9,28.7-73.6,49.4s-37.3,45.6-49.4,74.1c-12.1,28.4-18.2,59.2-18.2,91.3
				c0,32.7,6.1,63.6,18.1,91.8c12.1,28.1,28.7,52.9,49.4,73.6c20.7,20.7,45.5,37.4,73.6,49.4c28.1,12.1,59,18.2,91.8,18.2
				c32.2,0,62.9-6.1,91.3-18.2c28.5-12.1,53.4-28.7,74.1-49.4c20.7-20.7,37.4-45.5,49.4-73.6c12.1-28.1,18.2-59,18.2-91.8V851.4
				h-37.6v190.7l-9-11.9c-21-27.8-48.3-50.5-81.1-67.6C1417.8,945.6,1382.4,937,1345.3,937z M1345.1,1365.4
				c-26.7,0-52.2-5.3-75.8-15.6c-23.6-10.3-44.4-24.4-61.9-41.9c-17.6-17.6-31.7-38.4-41.9-61.9c-10.4-23.8-15.6-49.3-15.6-75.8
				s5.3-52,15.6-75.8c10.3-23.6,24.4-44.4,41.9-61.9c17.4-17.4,38.3-31.5,61.9-41.9c23.8-10.4,49.3-15.6,75.8-15.6s52,5.3,75.8,15.6
				c23.6,10.3,44.4,24.4,61.9,41.9c17.4,17.4,31.5,38.3,41.9,61.9c10.4,23.8,15.6,49.3,15.6,75.8s-5.3,52-15.6,75.8
				c-10.3,23.6-24.4,44.4-41.9,61.9c-17.6,17.6-38.4,31.7-61.9,41.9C1397.1,1360.1,1371.6,1365.4,1345.1,1365.4z M1345.1,984.8
				c-25.1,0-49.3,5-71.8,14.8c-22.5,9.9-42.3,23.3-58.9,39.9c-16.6,16.6-30.1,36.4-39.9,58.9s-14.8,46.7-14.8,71.8s5,49.3,14.8,71.8
				c9.7,22.3,23.1,42.1,39.9,58.9c16.6,16.6,36.4,30.1,58.9,39.9c22.6,9.9,46.1,14.8,71.8,14.8c25.1,0,49.3-5,71.8-14.8
				c22.3-9.7,42.1-23.1,58.9-39.9c16.6-16.6,30.1-36.4,39.9-58.9s14.8-46.7,14.8-71.8s-5-49.3-14.8-71.8
				c-9.9-22.5-23.3-42.3-39.9-58.9s-36.4-30.1-58.9-39.9C1394.4,989.8,1370.2,984.8,1345.1,984.8z"/>
		</g>
		<g>
			<path d="M1345.2,1418.2c-34.8,0-67.7-6.5-97.7-19.4c-29.9-12.8-56.2-30.5-78.3-52.6c-22.1-22.1-39.8-48.4-52.6-78.3
				c-12.8-30.1-19.3-63-19.3-97.7c0-34.2,6.5-66.9,19.4-97.2c12.8-30.3,30.6-56.8,52.6-78.9c22.1-22.1,48.4-39.8,78.3-52.6
				c30-12.9,62.9-19.4,97.7-19.4c39.5,0,77.3,9.2,112.2,27.3c26.1,13.6,48.9,30.6,68.2,50.7V836.4h67.6v333.7
				c0,34.8-6.5,67.7-19.4,97.7c-12.8,29.9-30.5,56.2-52.6,78.3c-22.1,22.1-48.6,39.8-78.9,52.6
				C1412.1,1411.7,1379.4,1418.2,1345.2,1418.2z M1345.3,942c-32.1,0-62.3,6-89.9,17.8c-27.5,11.8-51.8,28.1-72.1,48.4
				c-20.3,20.3-36.5,44.7-48.4,72.5c-11.8,27.8-17.8,57.9-17.8,89.4c0,32,6,62.3,17.7,89.9c11.8,27.5,28.1,51.8,48.4,72
				c20.3,20.3,44.5,36.6,72.1,48.4c27.5,11.8,57.7,17.8,89.9,17.8c31.5,0,61.6-6,89.4-17.8c27.9-11.8,52.3-28.1,72.5-48.4
				c20.3-20.3,36.6-44.5,48.4-72.1c11.8-27.5,17.8-57.7,17.8-89.9V856.4h-27.6v200.5l-18-23.7c-20.6-27.2-47.3-49.4-79.4-66.2
				C1416.3,950.4,1381.6,942,1345.3,942z M1345.1,1370.4c-27.4,0-53.6-5.4-77.8-16c-24.1-10.5-45.5-25-63.4-43
				c-18.1-18.1-32.5-39.4-43-63.5c-10.6-24.4-16-50.6-16-77.8c0-27.2,5.4-53.4,16-77.8c10.6-24.2,25-45.5,43-63.5
				c17.9-17.9,39.2-32.3,63.4-43c24.5-10.7,50.6-16,77.8-16s53.4,5.4,77.8,16c24.2,10.6,45.5,25,63.5,43
				c17.9,17.9,32.3,39.2,43,63.4c10.7,24.5,16,50.6,16,77.8s-5.4,53.4-16,77.8c-10.6,24.2-25,45.5-43,63.5
				c-18.1,18.1-39.4,32.5-63.5,43C1398.5,1365,1372.3,1370.4,1345.1,1370.4z M1345.1,989.8c-24.4,0-47.9,4.8-69.8,14.4
				c-21.9,9.6-41.2,22.7-57.3,38.8c-16.2,16.2-29.3,35.5-38.8,57.3c-9.5,21.9-14.4,45.4-14.4,69.8s4.8,47.9,14.4,69.8
				c9.5,21.8,22.5,41,38.8,57.3c16.2,16.2,35.5,29.3,57.3,38.8c22,9.7,44.8,14.4,69.8,14.4c24.4,0,47.9-4.8,69.8-14.4
				c21.8-9.5,41-22.5,57.3-38.8c16.2-16.2,29.3-35.5,38.8-57.3c9.7-22.2,14.4-45,14.4-69.8c0-24.4-4.8-47.9-14.4-69.8
				s-22.7-41.2-38.8-57.3c-16.2-16.2-35.5-29.3-57.3-38.8C1393,994.6,1369.5,989.8,1345.1,989.8z"/>
			<path d="M1345.2,1423.2c-35.6,0-69.1-6.7-99.7-19.8c-30.4-13-57.3-31.1-79.9-53.7s-40.6-49.5-53.7-79.9
				c-13.1-30.7-19.7-64.3-19.7-99.7c0-34.9,6.7-68.3,19.8-99.2c12.9-30.6,31-57.7,53.7-80.5c22.6-22.6,49.5-40.7,79.9-53.7
				c30.6-13.1,64.1-19.8,99.7-19.8c40.3,0,78.9,9.4,114.5,27.9c22.7,11.8,43.1,26.3,60.9,43.1V831.4h77.6v338.7
				c0,35.6-6.7,69.1-19.8,99.7c-13,30.4-31.1,57.3-53.7,79.9s-49.7,40.7-80.5,53.7C1413.6,1416.5,1380.2,1423.2,1345.2,1423.2z
				 M1345.3,927.1c-34.2,0-66.4,6.4-95.7,19c-29.2,12.5-55.1,29.9-76.7,51.5c-21.8,21.8-39.1,47.9-51.5,77.3
				c-12.6,29.6-19,61.7-19,95.3c0,34,6.4,66.3,18.9,95.7c12.5,29.2,29.8,55,51.5,76.7s47.5,39,76.7,51.5c29.3,12.6,61.5,19,95.7,19
				c33.7,0,65.7-6.4,95.2-19.1c29.6-12.5,55.7-29.9,77.3-51.5c21.7-21.7,39-47.5,51.5-76.7c12.6-29.3,19-61.5,19-95.7V841.4h-57.6
				v171.1l-8.6-9c-19-19.7-41.5-36.5-66.9-49.7C1421,936.1,1384,927.1,1345.3,927.1z M1345.2,1403.2c-32.8,0-63.7-6.1-91.9-18.2
				c-28.1-12-52.8-28.6-73.7-49.5c-20.7-20.6-37.4-45.4-49.5-73.6c-12-28.3-18.1-59.3-18.1-91.9c0-32.2,6.1-62.9,18.2-91.4
				c12.2-28.6,28.9-53.5,49.5-74.1c20.7-20.7,45.5-37.4,73.7-49.5c28.3-12.1,59.2-18.2,91.9-18.2c37.2,0,72.6,8.6,105.3,25.6
				c32.8,17.2,60.1,39.9,81.1,67.6l9,11.9V851.4h37.6V1170c0,32.8-6.1,63.7-18.2,91.9c-12,28.1-28.6,52.8-49.5,73.7
				c-20.7,20.8-45.6,37.4-74.1,49.5C1408.1,1397.1,1377.4,1403.2,1345.2,1403.2z M1345.3,947c-31.3,0-60.9,5.9-87.9,17.4
				c-27,11.6-50.7,27.5-70.5,47.3c-19.7,19.7-35.6,43.6-47.3,70.9c-11.5,27.2-17.4,56.6-17.4,87.4c0,31.3,5.8,60.9,17.3,87.9
				c11.6,27,27.5,50.7,47.3,70.4c19.9,19.9,43.7,35.9,70.5,47.3c26.9,11.5,56.5,17.4,87.9,17.4c30.8,0,60.2-5.9,87.4-17.4
				c27.3-11.5,51.1-27.5,70.9-47.3c19.9-19.9,35.9-43.7,47.3-70.5c11.5-26.9,17.4-56.5,17.4-87.9V861.4h-17.6v210.4l-27-35.5
				c-20.1-26.5-46.2-48.3-77.7-64.8C1414.7,955.2,1380.9,947,1345.3,947z M1345.1,1375.4c-28.1,0-54.9-5.5-79.8-16.4
				c-24.7-10.8-46.6-25.6-64.9-44.1c-18.5-18.5-33.3-40.3-44-65c-10.9-25.1-16.4-51.9-16.4-79.8s5.5-54.7,16.4-79.8
				c10.9-24.8,25.7-46.7,44.1-65c18.2-18.2,40.1-33.1,64.9-44c25-10.9,51.8-16.4,79.8-16.4c27.9,0,54.7,5.5,79.8,16.4
				c24.8,10.9,46.7,25.7,65,44.1c18.2,18.2,33.1,40.1,44,64.9c10.9,25,16.4,51.8,16.4,79.8c0,27.9-5.5,54.7-16.4,79.8
				c-10.9,24.8-25.7,46.7-44.1,65c-18.5,18.5-40.4,33.3-65,44C1399.9,1369.8,1373.1,1375.4,1345.1,1375.4z M1345.1,974.8
				c-26.6,0-52.1,5.2-75.8,15.6c-23.7,10.5-44.5,24.6-61.9,42c-17.5,17.5-31.6,38.3-42,62c-10.3,23.8-15.6,49.3-15.6,75.8
				s5.2,52,15.6,75.8c10.2,23.5,24.4,44.4,41.9,62s38.3,31.7,61.9,42s49.1,15.6,75.8,15.6c26.6,0,52.1-5.3,75.8-15.7
				c23.5-10.3,44.4-24.4,62-42c17.5-17.5,31.6-38.3,42-62c10.3-23.8,15.6-49.3,15.6-75.8c0-26.6-5.2-52.1-15.6-75.8
				c-10.5-23.7-24.6-44.5-42-61.9c-17.5-17.5-38.3-31.6-62-42C1397.1,980,1371.6,974.8,1345.1,974.8z M1345.1,1355.4
				c-25.7,0-49.2-4.8-71.8-14.8c-22.3-9.7-42.1-23.1-58.8-39.8c-16.7-16.7-30.1-36.5-39.8-58.8c-9.8-22.4-14.8-46.6-14.8-71.8
				c0-25,5-49.1,14.8-71.8c9.7-22.3,23.1-42.1,39.9-58.8c16.6-16.6,36.4-30,58.8-39.8s46.6-14.8,71.8-14.8s49.4,5,71.8,14.8
				c22.3,9.7,42.1,23.1,58.8,39.8c16.6,16.6,30,36.4,39.8,58.8s14.8,46.6,14.8,71.8c0,25.5-4.8,49-14.8,71.8
				c-9.7,22.3-23.1,42.1-39.8,58.8c-16.7,16.7-36.5,30.1-58.8,39.8C1394.5,1350.4,1370.3,1355.4,1345.1,1355.4z M1345.1,994.8
				c-23.8,0-46.6,4.7-67.8,14c-21.3,9.3-40,22-55.8,37.8c-15.8,15.8-28.5,34.6-37.8,55.8c-9.3,21.4-14,44.2-14,67.8
				c0,23.8,4.7,46.6,14,67.8c9.2,21.2,21.9,40,37.8,55.8c15.8,15.8,34.6,28.5,55.8,37.8c21.3,9.4,43.5,14,67.8,14
				c23.8,0,46.6-4.7,67.8-14c21.2-9.2,40-21.9,55.8-37.8c15.8-15.8,28.5-34.6,37.8-55.8c9.4-21.5,14-43.7,14-67.8
				c0-23.8-4.7-46.6-14-67.8c-9.3-21.3-22-40-37.8-55.8s-34.6-28.5-55.8-37.8S1368.9,994.8,1345.1,994.8z"/>
		</g>
	</g>
</g>
<g>
	<g>
		<g>
			<path d="M1885.9,930.9c33,0,64.1,6.2,93.3,18.6c29.2,12.4,54.4,29.2,75.7,50.5s38.1,46.5,50.5,75.7s18.6,60.3,18.6,93.3
				c0,33.6-6.2,64.9-18.6,93.8c-12.4,28.9-29.2,53.9-50.5,75.2c-21.3,21.3-46.5,38.1-75.7,50.5s-60.3,18.6-93.3,18.6
				c-33.6,0-64.9-6.2-93.8-18.6s-53.9-29.2-75.2-50.5c-21.3-21.3-38.1-46.3-50.5-75.2c-12.4-28.9-18.6-60.1-18.6-93.8V845.3h47.6
				v180.9c21.6-28.6,49.2-51.6,82.8-69C1812,939.7,1847.8,930.9,1885.9,930.9z M1885.9,1359.3c26,0,50.6-5.1,73.8-15.2
				c23.2-10.1,43.3-23.8,60.4-40.9s30.8-37.3,40.9-60.4c10.1-23.2,15.2-47.7,15.2-73.8c0-26-5.1-50.6-15.2-73.8
				c-10.2-23.2-23.8-43.3-40.9-60.4s-37.3-30.8-60.4-40.9c-23.2-10.1-47.8-15.2-73.8-15.2s-50.6,5.1-73.8,15.2
				c-23.2,10.2-43.3,23.8-60.4,40.9c-17.1,17.1-30.8,37.3-40.9,60.4c-10.2,23.2-15.2,47.8-15.2,73.8s5.1,50.6,15.2,73.8
				c10.1,23.2,23.8,43.3,40.9,60.4s37.3,30.8,60.4,40.9C1835.3,1354.2,1859.9,1359.3,1885.9,1359.3z"/>
			<path d="M1885.9,1412.1c-34.2,0-66.4-6.4-95.8-19c-29.3-12.6-55.1-29.9-76.8-51.6c-21.6-21.6-39-47.5-51.6-76.8
				c-12.6-29.4-19-61.6-19-95.8V840.3h57.6V1012c20.5-24,45.9-43.9,75.5-59.2c34.4-17.8,71.4-26.9,110-26.9c33.5,0,65.6,6.4,95.3,19
				c29.7,12.6,55.7,29.9,77.3,51.6c21.6,21.6,39,47.6,51.6,77.3s19,61.7,19,95.3c0,34.2-6.4,66.4-19,95.8
				c-12.6,29.3-29.9,55.1-51.6,76.8c-21.6,21.6-47.6,39-77.3,51.6C1951.5,1405.7,1919.4,1412.1,1885.9,1412.1z M1652.8,850.3V1169
				c0,32.8,6.1,63.7,18.2,91.8c12.1,28.1,28.7,52.9,49.4,73.6c20.7,20.7,45.5,37.4,73.6,49.4c28.1,12.1,59,18.2,91.8,18.2
				c32.2,0,62.9-6.1,91.3-18.2c28.5-12.1,53.4-28.7,74.1-49.4c20.7-20.7,37.4-45.5,49.4-73.6c12.1-28.1,18.2-59,18.2-91.8
				c0-32.2-6.1-62.9-18.2-91.3c-12.1-28.5-28.7-53.4-49.4-74.1c-20.7-20.7-45.7-37.3-74.1-49.4c-28.4-12.1-59.2-18.2-91.3-18.2
				c-37,0-72.4,8.7-105.4,25.7c-32.8,17-60.1,39.7-81.1,67.6l-9,11.9V850.3H1652.8z M1885.9,1364.3c-26.5,0-52-5.3-75.8-15.6
				c-23.6-10.3-44.4-24.4-61.9-41.9c-17.6-17.6-31.7-38.4-41.9-61.9c-10.4-23.8-15.6-49.3-15.6-75.8c0-26.7,5.3-52.2,15.6-75.8
				c10.3-23.6,24.4-44.4,41.9-61.9c17.4-17.4,38.3-31.5,61.9-41.9c23.8-10.4,49.3-15.6,75.8-15.6s52,5.3,75.8,15.6
				c23.6,10.3,44.4,24.4,61.9,41.9c17.4,17.4,31.5,38.3,41.9,61.9c10.4,23.8,15.6,49.3,15.6,75.8s-5.3,52-15.6,75.8
				c-10.3,23.6-24.4,44.4-42,61.9c-17.6,17.6-38.4,31.7-61.9,41.9C1937.9,1359,1912.4,1364.3,1885.9,1364.3z M1885.9,983.7
				c-25.1,0-49.3,5-71.8,14.8c-22.5,9.9-42.3,23.3-58.9,39.9c-16.6,16.6-30.1,36.4-39.9,58.9c-9.8,22.3-14.8,46.5-14.8,71.8
				c0,25.1,5,49.3,14.8,71.8c9.7,22.3,23.1,42.1,39.9,58.9c16.6,16.6,36.4,30.1,58.9,39.9s46.7,14.8,71.8,14.8s49.3-5,71.8-14.8
				c22.3-9.7,42.1-23.1,58.9-39.9c16.6-16.6,30.1-36.5,39.9-58.9c9.8-22.5,14.8-46.7,14.8-71.8s-5-49.3-14.8-71.8
				c-9.9-22.5-23.3-42.3-39.9-58.9s-36.4-30.1-58.9-39.9C1935.2,988.7,1911,983.7,1885.9,983.7z"/>
		</g>
		<g>
			<path d="M1885.9,1417.1c-34.8,0-67.7-6.5-97.7-19.4c-29.9-12.8-56.2-30.5-78.3-52.6c-22.1-22.1-39.8-48.4-52.6-78.3
				c-12.9-30-19.4-62.9-19.4-97.7V835.3h67.6V999c19.2-20.2,42.1-37.2,68.2-50.7c35.1-18.2,72.9-27.4,112.3-27.4
				c34.2,0,66.9,6.5,97.2,19.4c30.2,12.8,56.8,30.6,78.9,52.6c22.1,22.1,39.8,48.6,52.6,78.9c12.9,30.3,19.4,63,19.4,97.2
				c0,34.8-6.5,67.7-19.4,97.7c-12.8,29.9-30.5,56.2-52.6,78.3c-22.1,22.1-48.6,39.8-78.9,52.6
				C1952.8,1410.6,1920.1,1417.1,1885.9,1417.1z M1657.8,855.3V1169c0,32.1,6,62.3,17.8,89.9c11.8,27.5,28.1,51.8,48.4,72.1
				c20.3,20.3,44.5,36.6,72.1,48.4c27.5,11.8,57.7,17.8,89.9,17.8c31.5,0,61.6-6,89.4-17.8c27.9-11.8,52.3-28.1,72.5-48.4
				c20.3-20.3,36.6-44.5,48.4-72.1c11.8-27.5,17.8-57.7,17.8-89.9c0-31.5-6-61.6-17.8-89.4c-11.8-27.9-28.1-52.3-48.4-72.5
				c-20.3-20.3-44.7-36.5-72.5-48.4c-27.8-11.8-57.9-17.8-89.4-17.8c-36.1,0-70.8,8.5-103.1,25.2c-32.1,16.6-58.8,38.9-79.4,66.1
				l-18,23.8V855.3H1657.8z M1885.9,1369.3c-27.2,0-53.4-5.4-77.8-16c-24.2-10.6-45.5-25-63.5-43c-18.1-18.1-32.5-39.4-43-63.5
				c-10.6-24.4-16-50.6-16-77.8c0-27.4,5.4-53.6,16-77.8c10.5-24.1,25-45.5,43-63.4c17.9-17.9,39.2-32.3,63.4-43
				c24.5-10.7,50.6-16,77.8-16c27.2,0,53.4,5.4,77.8,16c24.2,10.6,45.5,25,63.5,43c17.9,17.9,32.3,39.2,43,63.4
				c10.7,24.5,16,50.6,16,77.8s-5.4,53.4-16,77.8c-10.6,24.2-25,45.5-43,63.5c-18.1,18.1-39.4,32.5-63.5,43
				C1939.3,1363.9,1913.1,1369.3,1885.9,1369.3z M1885.9,988.7c-24.4,0-47.9,4.8-69.8,14.4c-21.9,9.6-41.2,22.7-57.3,38.8
				c-16.2,16.2-29.3,35.5-38.8,57.3c-9.5,21.7-14.4,45.2-14.4,69.8c0,24.4,4.8,47.9,14.4,69.8c9.5,21.8,22.5,41,38.8,57.3
				c16.2,16.2,35.5,29.3,57.3,38.8c21.9,9.5,45.4,14.4,69.8,14.4s47.9-4.8,69.8-14.4c21.8-9.5,41-22.5,57.3-38.8
				c16.2-16.2,29.3-35.5,38.8-57.3c9.7-22.2,14.4-45,14.4-69.8c0-24.4-4.8-47.9-14.4-69.8c-9.6-21.9-22.7-41.2-38.8-57.3
				c-16.2-16.2-35.5-29.3-57.3-38.8C1933.8,993.5,1910.3,988.7,1885.9,988.7z"/>
			<path d="M1885.9,1422.1c-35.6,0-69.1-6.7-99.7-19.8c-30.4-13-57.3-31.1-79.9-53.7s-40.6-49.5-53.7-79.9
				c-13.1-30.6-19.8-64.1-19.8-99.7V830.3h77.6v156.6c17.7-16.8,38.1-31.3,60.9-43.1c35.8-18.6,74.3-28,114.6-28
				c34.9,0,68.3,6.7,99.2,19.8c30.7,13,57.8,31.1,80.5,53.7c22.6,22.6,40.7,49.7,53.7,80.5c13.1,30.8,19.8,64.2,19.8,99.1
				c0,35.6-6.7,69.1-19.8,99.7c-13,30.4-31.1,57.3-53.7,79.9c-22.6,22.6-49.7,40.7-80.5,53.7
				C1954.3,1415.4,1920.9,1422.1,1885.9,1422.1z M1642.9,840.3v328.8c0,34.2,6.4,66.4,19,95.7c12.5,29.2,29.9,55.1,51.5,76.7
				s47.5,39,76.7,51.5c29.3,12.6,61.5,19,95.7,19c33.6,0,65.7-6.4,95.3-19.1c29.6-12.5,55.6-29.9,77.3-51.5
				c21.7-21.7,39-47.5,51.5-76.7c12.6-29.3,19-61.5,19-95.7c0-33.6-6.4-65.6-19-95.2c-12.5-29.6-29.9-55.6-51.5-77.3
				c-21.8-21.7-47.8-39-77.3-51.5c-29.6-12.6-61.7-19-95.2-19c-38.6,0-75.7,9-110,26.8c-25.6,13.3-48.1,30-66.9,49.7l-8.6,9.1V840.3
				H1642.9z M1886,1402.2c-32.8,0-63.7-6.1-91.9-18.2c-28.1-12-52.8-28.6-73.7-49.5c-20.7-20.7-37.4-45.5-49.5-73.7
				c-12.1-28.3-18.2-59.2-18.2-91.9V850.3h37.7v190.8l9-11.9c21.1-27.9,48.4-50.6,81.1-67.5c33.1-17.1,68.5-25.8,105.4-25.8
				c32.2,0,62.9,6.1,91.4,18.2c28.6,12.2,53.5,28.9,74.1,49.5c20.8,20.7,37.4,45.6,49.5,74.1c12.1,28.4,18.2,59.2,18.2,91.3
				c0,32.8-6.1,63.7-18.2,91.9c-12,28.1-28.6,52.8-49.5,73.7c-20.7,20.8-45.6,37.4-74.1,49.5
				C1948.9,1396.1,1918.2,1402.2,1886,1402.2z M1662.8,860.3V1169c0,31.3,5.9,60.9,17.4,87.9c11.6,27,27.5,50.7,47.3,70.5
				c19.9,19.9,43.6,35.8,70.5,47.3s56.5,17.4,87.9,17.4c30.8,0,60.2-5.9,87.4-17.4c27.3-11.5,51.1-27.5,70.9-47.3
				c19.9-19.9,35.9-43.7,47.3-70.5c11.5-26.9,17.4-56.5,17.4-87.9c0-30.8-5.9-60.2-17.4-87.4c-11.5-27.3-27.5-51.1-47.3-70.9
				c-19.7-19.7-43.6-35.6-70.9-47.3c-27.2-11.5-56.6-17.4-87.4-17.4c-35.3,0-69.2,8.3-100.8,24.6c-31.3,16.2-57.5,38-77.7,64.7
				l-27,35.7V860.3H1662.8z M1885.9,1374.3c-27.9,0-54.7-5.5-79.8-16.4c-24.8-10.9-46.7-25.7-65-44.1c-18.5-18.5-33.3-40.4-44-65
				c-10.9-25.1-16.4-51.9-16.4-79.8c0-28.1,5.5-54.9,16.4-79.8c10.8-24.7,25.6-46.6,44.1-64.9c18.2-18.2,40.1-33,64.9-44
				c25-10.9,51.8-16.4,79.8-16.4c27.9,0,54.7,5.5,79.8,16.4c24.8,10.9,46.7,25.7,65,44.1c18.2,18.2,33.1,40.1,44,64.9
				c10.9,25,16.4,51.8,16.4,79.8c0,27.9-5.5,54.7-16.4,79.8c-10.9,24.8-25.7,46.7-44.1,65c-18.5,18.5-40.4,33.3-65,44
				C1940.6,1368.8,1913.8,1374.3,1885.9,1374.3z M1885.8,973.8c-26.6,0-52.1,5.2-75.8,15.6c-23.7,10.5-44.5,24.6-61.9,42
				c-17.6,17.5-31.7,38.3-42,61.9s-15.6,49.1-15.6,75.8c0,26.5,5.2,52,15.6,75.8c10.2,23.5,24.4,44.4,41.9,62
				c17.5,17.5,38.3,31.6,62,42c23.8,10.3,49.3,15.6,75.8,15.6s52-5.2,75.7-15.6c23.5-10.3,44.4-24.4,62-42
				c17.5-17.5,31.6-38.3,42-62c10.3-23.8,15.6-49.3,15.6-75.8c0-26.6-5.2-52.1-15.6-75.8c-10.5-23.7-24.6-44.5-42-61.9
				c-17.5-17.5-38.3-31.6-62-42C1937.8,979,1912.3,973.8,1885.8,973.8z M1885.9,1354.3c-25,0-49.1-5-71.8-14.8
				c-22.3-9.7-42.1-23.1-58.8-39.9s-30.1-36.5-39.8-58.8c-9.8-22.4-14.8-46.6-14.8-71.8c0-25.2,5-49.3,14.8-71.8
				c9.7-22.3,23.1-42.1,39.8-58.8c16.6-16.6,36.4-30,58.8-39.8s46.6-14.8,71.8-14.8c25.2,0,49.4,5,71.8,14.8
				c22.3,9.7,42.1,23.1,58.8,39.8c16.6,16.6,30,36.4,39.8,58.8c9.8,22.4,14.8,46.6,14.8,71.8c0,25.5-4.8,49-14.8,71.8
				c-9.7,22.3-23.1,42.1-39.8,58.8c-16.7,16.7-36.5,30.1-58.8,39.8C1935.3,1349.3,1911.1,1354.3,1885.9,1354.3z M1885.9,993.7
				c-23.8,0-46.6,4.7-67.8,14c-21.3,9.3-40,22-55.8,37.8s-28.5,34.6-37.8,55.8c-9.3,21.2-14,44-14,67.8s4.7,46.6,14,67.8
				c9.2,21.2,21.9,40,37.8,55.8c15.8,15.8,34.6,28.5,55.8,37.8c21.4,9.3,44.2,14,67.8,14c23.8,0,46.6-4.7,67.8-14
				c21.2-9.2,40-21.9,55.8-37.8c15.8-15.8,28.5-34.6,37.8-55.8c9.4-21.5,14-43.7,14-67.8c0-23.8-4.7-46.6-14-67.8
				c-9.3-21.3-22-40-37.8-55.8s-34.6-28.5-55.8-37.8C1932.5,998.4,1909.7,993.7,1885.9,993.7z"/>
		</g>
	</g>
</g>
<g>
	<g>
		<path d="M2183.6,1163.7c0-113.9,88.8-206.1,199.4-206.1c105.6,0,189.3,83.8,197.7,191v0.8v2.5c0,10.9-9.2,18.4-20.1,18.4h-336.8
			c4.2,89.6,74.6,157.5,159.2,157.5c54.5,0,104.7-28.5,132.4-74.6c5.9-10.1,18.4-11.7,26.8-6.7c9.2,6.7,12.6,18.4,6.7,28.5
			c-35.2,56.1-96.3,93-165.9,93C2272.4,1368.1,2183.6,1276,2183.6,1163.7z M2226.3,1131h310.8c-13.4-77.1-78.7-133.2-154.1-133.2
			C2305.9,997.8,2241.4,1053.1,2226.3,1131z"/>
		<path d="M2382.8,1368.5c-53.4,0-103.6-21.4-141.4-60.2c-37.6-38.7-58.4-90.1-58.4-144.6c0-55.3,20.7-107.2,58.4-146.1
			c37.7-39,88-60.5,141.5-60.5c104.4,0,189.6,82.3,198.2,191.5v3.3c0,10.8-8.9,18.9-20.6,18.9h-336.3c4.4,87.8,74,156.5,158.7,156.5
			c53.8,0,104.4-28.5,132-74.4c2.6-4.5,6.9-7.7,11.9-9c5.3-1.4,11-0.6,15.6,2.2c9.9,7.2,12.7,19.2,6.9,29.2
			c-36.6,58.4-98.8,93.2-166.3,93.2C2382.9,1368.5,2382.9,1368.5,2382.8,1368.5z M2383,958.1c-109.7,0-198.9,92.2-198.9,205.6
			c0,54.3,20.6,105.4,58.1,144s87.5,59.8,140.6,59.8c0.1,0,0.1,0,0.2,0c67.2,0,129-34.7,165.5-92.8c5.6-9.5,2.9-21-6.6-27.8
			c-4.3-2.6-9.7-3.3-14.8-2c-3.4,0.9-8.1,3.1-11.3,8.6c-13.7,22.7-33.1,41.7-56.3,54.8c-23.3,13.1-49.7,20.1-76.5,20.1
			c-41.2,0-80.3-16.1-110.1-45.3c-30-29.4-47.6-69.4-49.6-112.7v-0.5h337.3c11.2,0,19.6-7.7,19.6-17.9v-3.3
			C2571.7,1040,2486.9,958.1,2383,958.1z M2537.7,1131.5h-312l0.1-0.6c7.3-37.9,27-72,55.3-96.1c28.4-24.2,64.6-37.5,101.9-37.5
			c36.6,0,72.4,13.4,100.6,37.8c28.3,24.4,47.5,58.4,54,95.8L2537.7,1131.5z M2226.9,1130.5h309.6
			c-13.6-76.6-78.1-132.2-153.5-132.2C2306.4,998.3,2242.3,1052.6,2226.9,1130.5z"/>
	</g>
</g>
<g>
	<g>
		<path d="M2767.1,1361c-2.5-2.5-5-5-6.7-9.2l-154.1-366.9c-4.2-10.1,0.8-21.8,10.1-26c10.1-4.2,22.6,0.8,26,10.9l136.5,323.4
			l136.5-323.4c3.4-10.1,15.9-15.1,26-10.9c10.1,4.2,14.2,15.9,10.1,26l-153.3,363.6c-0.8,3.4-2.5,6.7-5,10.1
			c-3.4,4.2-9.2,5.9-13.4,5.9c-2.5,0-4.2,0-6.7-0.8c-0.8,0-0.8,0-1.7-0.8C2769.6,1362.6,2768.8,1361.8,2767.1,1361z"/>
		<path d="M2779.8,1366c-2.5,0-4.3,0-6.9-0.8c-1,0-1.4-0.2-2.1-0.9c-1.2-0.3-2.1-0.8-2.9-1.2c-0.4-0.2-0.8-0.5-1.3-0.7l-0.2-0.1
			l-0.2-0.2c-2.6-2.6-5.2-5.2-7-9.7l-154.1-366.9c-4.4-10.5,0.6-23.3,10.9-27.9c5.5-2.3,11.8-2.2,17.4,0.4
			c5.2,2.3,8.9,6.4,10.6,11.4l135.1,320.1L2914,969.3c1.7-5,5.5-9,10.6-11.4c5.6-2.5,11.9-2.7,17.4-0.4
			c10.7,4.4,15.5,16.7,10.9,27.9L2799.6,1349c-0.8,3.4-2.5,6.9-5.2,10.5C2790.5,1364.3,2784.1,1366,2779.8,1366z M2773.1,1362.2h0.2
			l0.2,0.1c2.3,0.7,3.8,0.7,6.2,0.7c3.9,0,9.2-1.7,12.2-5.3c2.4-3.3,4-6.4,4.7-9.5l0.1-0.2L2950,984.4c3.9-9.7-0.2-20.2-9.3-24
			c-4.7-2-10.2-1.8-15,0.3c-4.4,2-7.6,5.4-9,9.6v0.1l-137.9,326.7L2641,970.3c-1.4-4.2-4.6-7.6-9-9.6c-4.8-2.2-10.3-2.3-15-0.3
			c-8.8,4-13.1,15-9.3,24l154.1,366.9c1.6,3.8,3.8,6.1,6.2,8.5c0.5,0.2,0.9,0.5,1.3,0.7c0.8,0.5,1.4,0.8,2.4,1l0.4,0.1l0.3,0.3
			c0.2,0.2,0.4,0.3,0.5,0.4C2772.9,1362.2,2773,1362.2,2773.1,1362.2z"/>
	</g>
</g>
<g>
	<g>
		<path d="M206.5,1400.6c-4.2-1.7-6.7-5-8.4-9.2L44,1024.5c-4.2-10.1,0.8-21.8,10.1-26c10.1-4.2,22.6,0.8,26,10.9l136.5,323.4
			l94.7-225.3c3.4-7.5,11.7-12.6,19.3-12.6c8.4,0,16.8,5,20.1,12.6l94.7,225.3l135.7-323.4c4.2-10.1,16.8-15.1,26-10.9
			c10.1,4.2,15.1,15.9,10.9,26l-153.3,365.2c-1.7,4.2-4.2,7.5-7.5,10.1c-3.4,2.5-6.7,4.2-10.1,4.2h-1.7h-2.5
			c-6.7-0.8-14.2-5.9-15.9-12.6l-0.8-0.8l-95.5-227L236,1389.8c0,0-0.8,0.8-0.8,1.7c-2.5,7.5-10.9,12.6-17.6,12.6
			c-2.5,0-5-0.8-7.5-1.7C208.2,1402.3,207.3,1401.4,206.5,1400.6z"/>
		<path d="M217.6,1405.6c-2.7,0-5.4-0.8-7.8-1.7c-2.1-0.2-3.3-1.2-4.1-2c-4-1.7-6.9-5-8.9-9.9L42.6,1025.1
			c-4.4-10.5,0.6-23.3,10.9-27.9c5.5-2.3,11.8-2.2,17.4,0.4c5.2,2.3,8.9,6.4,10.6,11.4l135.1,320.1l93.3-222
			c3.6-7.8,12.2-13.5,20.7-13.5c9.2,0,18,5.6,21.5,13.5l93.3,222L579.7,1009c2.2-5.3,6.7-9.6,12.3-11.8c5.3-2.1,11-2.1,15.7,0.1
			c5.2,2.2,9.3,6.3,11.6,11.6c2.2,5.3,2.3,11.1,0.1,16.4l-153.3,365.2c-1.8,4.4-4.4,7.9-8,10.7c-4.3,3.1-7.7,4.5-11,4.5h-4.4
			c-6.8-0.8-15-6-17.1-13.3l-0.7-0.7l-94.2-224l-93.4,223.2l-0.2,0.2c-0.2,0.2-0.4,0.5-0.4,0.6v0.2l-0.1,0.2
			C233.8,1400.4,224.6,1405.6,217.6,1405.6z M61.7,998.5c-2.4,0-4.8,0.5-7,1.4c-8.8,4-13.1,15-9.3,24l154.1,366.9
			c1.8,4.3,4.2,7,7.6,8.4l0.3,0.1l0.2,0.2c0.7,0.7,1.3,1.3,2.6,1.4h0.2l0.2,0.1c2.3,0.8,4.7,1.6,7,1.6c5.9,0,13.7-4.6,16.1-11.4
			c0.1-1,0.7-1.8,1-2.2l96-229.3l96.8,230l0.9,0.9l0.1,0.4c1.6,6.2,8.7,10.7,14.5,11.5h4.1c2.7,0,5.5-1.2,9.2-3.9
			c3.1-2.5,5.4-5.6,7-9.5l153.3-365.2c1.9-4.5,1.8-9.5-0.1-14c-1.9-4.6-5.5-8.1-10-10c-4-1.8-8.9-1.8-13.4,0
			c-4.9,1.9-8.7,5.6-10.6,10.1l-137.1,326.7l-96.1-228.6c-3-6.9-10.7-11.7-18.7-11.7c-7.3,0-14.9,4.9-17.9,11.7l-96.1,228.5
			L78.7,1009.9c-1.4-4.2-4.6-7.6-9-9.6C67.1,999.1,64.4,998.5,61.7,998.5z"/>
	</g>
</g>
<g>
	<g>
		<path d="M649,1202.5c0-113.9,88.8-206.1,199.4-206.1c105.6,0,189.3,83.8,197.7,191v0.8v2.5c0,10.9-9.2,18.4-20.1,18.4H689.2
			c4.2,89.6,74.6,157.5,159.2,157.5c54.5,0,104.7-28.5,132.4-74.6c5.9-10.1,18.4-11.7,26.8-6.7c9.2,6.7,12.6,18.4,6.7,28.5
			c-35.2,56.1-96.3,93-165.9,93C737.8,1406.9,649,1314.8,649,1202.5z M691.7,1169.8h310.8c-13.4-77.1-78.7-133.2-154.1-133.2
			C771.3,1036.6,706.8,1091.9,691.7,1169.8z"/>
		<path d="M848.2,1407.3c-53.4,0-103.6-21.4-141.4-60.2c-37.6-38.7-58.4-90.1-58.4-144.6c0-55.3,20.7-107.2,58.4-146.1
			c37.7-39,88-60.5,141.5-60.5c104.4,0,189.6,82.3,198.2,191.5v3.3c0,10.8-8.9,18.9-20.6,18.9H689.7c4.4,87.8,74,156.5,158.7,156.5
			c53.8,0,104.4-28.5,132-74.4c2.6-4.5,6.9-7.7,11.9-9c5.3-1.4,11-0.6,15.6,2.2c9.9,7.2,12.7,19.2,6.9,29.2
			c-36.6,58.4-98.8,93.2-166.3,93.2C848.3,1407.3,848.3,1407.3,848.2,1407.3z M848.4,996.9c-109.7,0-198.9,92.2-198.9,205.6
			c0,54.3,20.6,105.4,58.1,144s87.5,59.8,140.6,59.8c0.1,0,0.1,0,0.2,0c67.2,0,129-34.7,165.5-92.8c5.6-9.5,2.9-21-6.6-27.8
			c-4.3-2.6-9.7-3.3-14.8-2c-3.4,0.9-8.1,3.1-11.3,8.6c-13.7,22.7-33.1,41.7-56.3,54.8c-23.3,13.1-49.7,20.1-76.5,20.1
			c-41.2,0-80.3-16.1-110.1-45.3c-30-29.4-47.6-69.4-49.6-112.7v-0.5H1026c11.2,0,19.6-7.7,19.6-17.9v-3.3
			C1037.1,1078.8,952.3,996.9,848.4,996.9z M1003.1,1170.3h-312l0.1-0.6c7.3-37.9,27-72,55.3-96.1c28.4-24.2,64.6-37.5,101.9-37.5
			c36.6,0,72.4,13.4,100.6,37.8c28.3,24.4,47.5,58.4,54,95.8L1003.1,1170.3z M692.3,1169.3h309.6c-13.6-76.6-78.1-132.2-153.5-132.2
			C771.8,1037.1,707.7,1091.4,692.3,1169.3z"/>
	</g>
</g>
</svg>
