<?xml version="1.0" encoding="utf-8"?>
<!-- Generator: Adobe Illustrator 21.0.2, SVG Export Plug-In . SVG Version: 6.00 Build 0)  -->
<svg version="1.1" id="Слой_1" xmlns="http://www.w3.org/2000/svg" xmlns:xlink="http://www.w3.org/1999/xlink" x="0px" y="0px"
	 viewBox="0 0 2999 2219" style="enable-background:new 0 0 2999 2219;" xml:space="preserve">
<style type="text/css">
	.st0{display:none;fill:#FFFFFF;}
</style>
<g>
	<g>
		<path d="M1107.2,1170.1c0-33,6.2-64.1,18.6-93.3c12.4-29.2,29.2-54.4,50.5-75.7s46.3-38.1,75.2-50.5
			c28.9-12.4,60.1-18.6,93.8-18.6c38.1,0,73.9,8.7,107.6,26.2c33.6,17.5,61.2,40.5,82.8,69V846.4h47.6v323.7
			c0,33.6-6.2,64.9-18.6,93.8s-29.2,53.9-50.5,75.2c-21.3,21.3-46.5,38.1-75.7,50.5s-60.3,18.6-93.3,18.6
			c-33.6,0-64.9-6.2-93.8-18.6s-53.9-29.2-75.2-50.5c-21.3-21.3-38.1-46.3-50.5-75.2C1113.4,1235,1107.2,1203.7,1107.2,1170.1z
			 M1154.8,1170.1c0,26,5.1,50.6,15.2,73.8c10.1,23.2,23.8,43.3,40.9,60.4s37.3,30.8,60.4,40.9c23.2,10.2,47.7,15.2,73.8,15.2
			c26,0,50.6-5.1,73.8-15.2c23.2-10.1,43.3-23.8,60.4-40.9s30.8-37.3,40.9-60.4c10.1-23.2,15.2-47.7,15.2-73.8
			c0-26-5.1-50.6-15.2-73.8c-10.2-23.2-23.8-43.3-40.9-60.4s-37.3-30.8-60.4-40.9c-23.2-10.1-47.8-15.2-73.8-15.2
			s-50.6,5.1-73.8,15.2c-23.2,10.2-43.3,23.8-60.4,40.9c-17.1,17.1-30.8,37.3-40.9,60.4C1159.9,1119.5,1154.8,1144.1,1154.8,1170.1z
			"/>
		<path d="M1345.2,1418.2c-34.8,0-67.7-6.5-97.7-19.4c-29.9-12.8-56.2-30.5-78.3-52.6c-22.1-22.1-39.8-48.4-52.6-78.3
			c-12.8-30.1-19.3-63-19.3-97.7c0-34.2,6.5-66.9,19.4-97.2c12.8-30.3,30.6-56.8,52.6-78.9c22.1-22.1,48.4-39.8,78.3-52.6
			c30-12.9,62.9-19.4,97.7-19.4c39.5,0,77.3,9.2,112.2,27.3c26.1,13.6,48.9,30.6,68.2,50.7V836.4h67.6v333.7
			c0,34.8-6.5,67.7-19.4,97.7c-12.8,29.9-30.5,56.2-52.6,78.3c-22.1,22.1-48.6,39.8-78.9,52.6
			C1412.1,1411.7,1379.4,1418.2,1345.2,1418.2z M1345.3,942c-32.1,0-62.3,6-89.9,17.8c-27.5,11.8-51.8,28.1-72.1,48.4
			c-20.3,20.3-36.5,44.7-48.4,72.5c-11.8,27.8-17.8,57.9-17.8,89.4c0,32,6,62.3,17.7,89.9c11.8,27.5,28.1,51.8,48.4,72
			c20.3,20.3,44.5,36.6,72.1,48.4c27.5,11.8,57.7,17.8,89.9,17.8c31.5,0,61.6-6,89.4-17.8c27.9-11.8,52.3-28.1,72.5-48.4
			c20.3-20.3,36.6-44.5,48.4-72.1c11.8-27.5,17.8-57.7,17.8-89.9V856.4h-27.6v200.5l-18-23.7c-20.6-27.2-47.3-49.4-79.4-66.2
			C1416.3,950.4,1381.6,942,1345.3,942z M1345.1,1370.4c-27.4,0-53.6-5.4-77.8-16c-24.1-10.5-45.5-25-63.4-43
			c-18.1-18.1-32.5-39.4-43-63.5c-10.6-24.4-16-50.6-16-77.8c0-27.2,5.4-53.4,16-77.8c10.6-24.2,25-45.5,43-63.5
			c17.9-17.9,39.2-32.3,63.4-43c24.5-10.7,50.6-16,77.8-16s53.4,5.4,77.8,16c24.2,10.6,45.5,25,63.5,43c17.9,17.9,32.3,39.2,43,63.4
			c10.7,24.5,16,50.6,16,77.8s-5.4,53.4-16,77.8c-10.6,24.2-25,45.5-43,63.5c-18.1,18.1-39.4,32.5-63.5,43
			C1398.5,1365,1372.3,1370.4,1345.1,1370.4z M1345.1,989.8c-24.4,0-47.9,4.8-69.8,14.4c-21.9,9.6-41.2,22.7-57.3,38.8
			c-16.2,16.2-29.3,35.5-38.8,57.3c-9.5,21.9-14.4,45.4-14.4,69.8c0,24.4,4.8,47.9,14.4,69.8c9.5,21.8,22.5,41,38.8,57.3
			c16.2,16.2,35.5,29.3,57.3,38.8c22,9.7,44.8,14.4,69.8,14.4c24.4,0,47.9-4.8,69.8-14.4c21.8-9.5,41-22.5,57.3-38.8
			c16.2-16.2,29.3-35.5,38.8-57.3c9.7-22.2,14.4-45,14.4-69.8c0-24.4-4.8-47.9-14.4-69.8c-9.6-21.9-22.7-41.2-38.8-57.3
			c-16.2-16.2-35.5-29.3-57.3-38.8C1393,994.6,1369.5,989.8,1345.1,989.8z"/>
	</g>
</g>
<g>
	<g>
		<path d="M1885.9,930.9c33,0,64.1,6.2,93.3,18.6c29.2,12.4,54.4,29.2,75.7,50.5s38.1,46.5,50.5,75.7s18.6,60.3,18.6,93.3
			c0,33.6-6.2,64.9-18.6,93.8c-12.4,28.9-29.2,53.9-50.5,75.2c-21.3,21.3-46.5,38.1-75.7,50.5s-60.3,18.6-93.3,18.6
			c-33.6,0-64.9-6.2-93.8-18.6s-53.9-29.2-75.2-50.5c-21.3-21.3-38.1-46.3-50.5-75.2c-12.4-28.9-18.6-60.1-18.6-93.8V845.3h47.6
			v180.9c21.6-28.6,49.2-51.6,82.8-69C1812,939.7,1847.8,930.9,1885.9,930.9z M1885.9,1359.3c26,0,50.6-5.1,73.8-15.2
			c23.2-10.1,43.3-23.8,60.4-40.9s30.8-37.3,40.9-60.4c10.1-23.2,15.2-47.7,15.2-73.8c0-26-5.1-50.6-15.2-73.8
			c-10.2-23.2-23.8-43.3-40.9-60.4s-37.3-30.8-60.4-40.9c-23.2-10.1-47.8-15.2-73.8-15.2s-50.6,5.1-73.8,15.2
			c-23.2,10.2-43.3,23.8-60.4,40.9c-17.1,17.1-30.8,37.3-40.9,60.4c-10.2,23.2-15.2,47.8-15.2,73.8s5.1,50.6,15.2,73.8
			c10.1,23.2,23.8,43.3,40.9,60.4s37.3,30.8,60.4,40.9C1835.3,1354.2,1859.9,1359.3,1885.9,1359.3z"/>
		<path d="M1885.9,1417.1c-34.8,0-67.7-6.5-97.7-19.4c-29.9-12.8-56.2-30.5-78.3-52.6c-22.1-22.1-39.8-48.4-52.6-78.3
			c-12.9-30-19.4-62.9-19.4-97.7V835.3h67.6V999c19.2-20.2,42.1-37.2,68.2-50.7c35.1-18.2,72.9-27.4,112.3-27.4
			c34.2,0,66.9,6.5,97.2,19.4c30.2,12.8,56.8,30.6,78.9,52.6c22.1,22.1,39.8,48.6,52.6,78.9c12.9,30.3,19.4,63,19.4,97.2
			c0,34.8-6.5,67.7-19.4,97.7c-12.8,29.9-30.5,56.2-52.6,78.3c-22.1,22.1-48.6,39.8-78.9,52.6
			C1952.8,1410.6,1920.1,1417.1,1885.9,1417.1z M1657.8,855.3V1169c0,32.1,6,62.3,17.8,89.9c11.8,27.5,28.1,51.8,48.4,72.1
			c20.3,20.3,44.5,36.6,72.1,48.4c27.5,11.8,57.7,17.8,89.9,17.8c31.5,0,61.6-6,89.4-17.8c27.9-11.8,52.3-28.1,72.5-48.4
			c20.3-20.3,36.6-44.5,48.4-72.1c11.8-27.5,17.8-57.7,17.8-89.9c0-31.5-6-61.6-17.8-89.4c-11.8-27.9-28.1-52.3-48.4-72.5
			c-20.3-20.3-44.7-36.5-72.5-48.4c-27.8-11.8-57.9-17.8-89.4-17.8c-36.1,0-70.8,8.5-103.1,25.2c-32.1,16.6-58.8,38.9-79.4,66.1
			l-18,23.8V855.3H1657.8z M1885.9,1369.3c-27.2,0-53.4-5.4-77.8-16c-24.2-10.6-45.5-25-63.5-43c-18.1-18.1-32.5-39.4-43-63.5
			c-10.6-24.4-16-50.6-16-77.8c0-27.4,5.4-53.6,16-77.8c10.5-24.1,25-45.5,43-63.4c17.9-17.9,39.2-32.3,63.4-43
			c24.5-10.7,50.6-16,77.8-16c27.2,0,53.4,5.4,77.8,16c24.2,10.6,45.5,25,63.5,43c17.9,17.9,32.3,39.2,43,63.4
			c10.7,24.5,16,50.6,16,77.8s-5.4,53.4-16,77.8c-10.6,24.2-25,45.5-43,63.5c-18.1,18.1-39.4,32.5-63.5,43
			C1939.3,1363.9,1913.1,1369.3,1885.9,1369.3z M1885.9,988.7c-24.4,0-47.9,4.8-69.8,14.4c-21.9,9.6-41.2,22.7-57.3,38.8
			c-16.2,16.2-29.3,35.5-38.8,57.3c-9.5,21.7-14.4,45.2-14.4,69.8c0,24.4,4.8,47.9,14.4,69.8c9.5,21.8,22.5,41,38.8,57.3
			c16.2,16.2,35.5,29.3,57.3,38.8c21.9,9.5,45.4,14.4,69.8,14.4c24.4,0,47.9-4.8,69.8-14.4c21.8-9.5,41-22.5,57.3-38.8
			c16.2-16.2,29.3-35.5,38.8-57.3c9.7-22.2,14.4-45,14.4-69.8c0-24.4-4.8-47.9-14.4-69.8c-9.6-21.9-22.7-41.2-38.8-57.3
			c-16.2-16.2-35.5-29.3-57.3-38.8C1933.8,993.5,1910.3,988.7,1885.9,988.7z"/>
	</g>
</g>
<g>
	<g>
		<path d="M2183.6,1163.7c0-113.9,88.8-206.1,199.4-206.1c105.6,0,189.3,83.8,197.7,191v0.8v2.5c0,10.9-9.2,18.4-20.1,18.4h-336.8
			c4.2,89.6,74.6,157.5,159.2,157.5c54.5,0,104.7-28.5,132.4-74.6c5.9-10.1,18.4-11.7,26.8-6.7c9.2,6.7,12.6,18.4,6.7,28.5
			c-35.2,56.1-96.3,93-165.9,93C2272.4,1368.1,2183.6,1276,2183.6,1163.7z M2226.3,1131h310.8c-13.4-77.1-78.7-133.2-154.1-133.2
			C2305.9,997.8,2241.4,1053.1,2226.3,1131z"/>
		<path d="M2382.8,1368.5c-53.4,0-103.6-21.4-141.4-60.2c-37.6-38.7-58.4-90.1-58.4-144.6c0-55.3,20.7-107.2,58.4-146.1
			c37.7-39,88-60.5,141.5-60.5c104.4,0,189.6,82.3,198.2,191.5l0,3.3c0,10.8-8.9,18.9-20.6,18.9h-336.3
			c4.4,87.8,74,156.5,158.7,156.5c53.8,0,104.4-28.5,132-74.4c2.6-4.5,6.9-7.7,11.9-9c5.3-1.4,11-0.6,15.6,2.2
			c9.9,7.2,12.7,19.2,6.9,29.2c-36.6,58.4-98.8,93.2-166.3,93.2C2382.9,1368.5,2382.9,1368.5,2382.8,1368.5z M2383,958.1
			c-109.7,0-198.9,92.2-198.9,205.6c0,54.3,20.6,105.4,58.1,144c37.5,38.6,87.5,59.8,140.6,59.8c0.1,0,0.1,0,0.2,0
			c67.2,0,129-34.7,165.5-92.8c5.6-9.5,2.9-21-6.6-27.8c-4.3-2.6-9.7-3.3-14.8-2c-3.4,0.9-8.1,3.1-11.3,8.6
			c-13.7,22.7-33.1,41.7-56.3,54.8c-23.3,13.1-49.7,20.1-76.5,20.1c-41.2,0-80.3-16.1-110.1-45.3c-30-29.4-47.6-69.4-49.6-112.7
			l0-0.5h337.3c11.2,0,19.6-7.7,19.6-17.9v-3.3C2571.7,1040,2486.9,958.1,2383,958.1z M2537.7,1131.5h-312l0.1-0.6
			c7.3-37.9,27-72,55.3-96.1c28.4-24.2,64.6-37.5,101.9-37.5c36.6,0,72.4,13.4,100.6,37.8c28.3,24.4,47.5,58.4,54,95.8
			L2537.7,1131.5z M2226.9,1130.5h309.6c-13.6-76.6-78.1-132.2-153.5-132.2C2306.4,998.3,2242.3,1052.6,2226.9,1130.5z"/>
	</g>
</g>
<g>
	<g>
		<path d="M2767.1,1361c-2.5-2.5-5-5-6.7-9.2l-154.1-366.9c-4.2-10.1,0.8-21.8,10.1-26c10.1-4.2,22.6,0.8,26,10.9l136.5,323.4
			l136.5-323.4c3.4-10.1,15.9-15.1,26-10.9c10.1,4.2,14.2,15.9,10.1,26l-153.3,363.6c-0.8,3.4-2.5,6.7-5,10.1
			c-3.4,4.2-9.2,5.9-13.4,5.9c-2.5,0-4.2,0-6.7-0.8c-0.8,0-0.8,0-1.7-0.8C2769.6,1362.6,2768.8,1361.8,2767.1,1361z"/>
		<path d="M2779.8,1366c-2.5,0-4.3,0-6.9-0.8c-1,0-1.4-0.2-2.1-0.9c-1.2-0.3-2.1-0.8-2.9-1.2c-0.4-0.2-0.8-0.5-1.3-0.7l-0.2-0.1
			l-0.2-0.2c-2.6-2.6-5.2-5.2-7-9.7l-154.1-366.9c-4.4-10.5,0.6-23.3,10.9-27.9c5.5-2.3,11.8-2.2,17.4,0.4
			c5.2,2.3,8.9,6.4,10.6,11.4l135.1,320.1L2914,969.3c1.7-5,5.5-9,10.6-11.4c5.6-2.5,11.9-2.7,17.4-0.4
			c10.7,4.4,15.5,16.7,10.9,27.9L2799.6,1349c-0.8,3.4-2.5,6.9-5.2,10.5C2790.5,1364.3,2784.1,1366,2779.8,1366z M2773.1,1362.2h0.2
			l0.2,0.1c2.3,0.7,3.8,0.7,6.2,0.7c3.9,0,9.2-1.7,12.2-5.3c2.4-3.3,4-6.4,4.7-9.5l0.1-0.2l153.3-363.6c3.9-9.7-0.2-20.2-9.3-24
			c-4.7-2-10.2-1.8-15,0.3c-4.4,2-7.6,5.4-9,9.6l0,0.1l-137.9,326.7L2641,970.3c-1.4-4.2-4.6-7.6-9-9.6c-4.8-2.2-10.3-2.3-15-0.3
			c-8.8,4-13.1,15-9.3,24l154.1,366.9c1.6,3.8,3.8,6.1,6.2,8.5c0.5,0.2,0.9,0.5,1.3,0.7c0.8,0.5,1.4,0.8,2.4,1l0.4,0.1l0.3,0.3
			c0.2,0.2,0.4,0.3,0.5,0.4C2772.9,1362.2,2773,1362.2,2773.1,1362.2z"/>
	</g>
</g>
<g>
	<g>
		<path d="M206.5,1400.6c-4.2-1.7-6.7-5-8.4-9.2L44,1024.5c-4.2-10.1,0.8-21.8,10.1-26c10.1-4.2,22.6,0.8,26,10.9l136.5,323.4
			l94.7-225.3c3.4-7.5,11.7-12.6,19.3-12.6c8.4,0,16.8,5,20.1,12.6l94.7,225.3l135.7-323.4c4.2-10.1,16.8-15.1,26-10.9
			c10.1,4.2,15.1,15.9,10.9,26l-153.3,365.2c-1.7,4.2-4.2,7.5-7.5,10.1c-3.4,2.5-6.7,4.2-10.1,4.2h-1.7h-2.5
			c-6.7-0.8-14.2-5.9-15.9-12.6l-0.8-0.8l-95.5-227L236,1389.8c0,0-0.8,0.8-0.8,1.7c-2.5,7.5-10.9,12.6-17.6,12.6
			c-2.5,0-5-0.8-7.5-1.7C208.2,1402.3,207.3,1401.4,206.5,1400.6z"/>
		<path d="M217.6,1405.6c-2.7,0-5.4-0.8-7.8-1.7c-2.1-0.2-3.3-1.2-4.1-2c-4-1.7-6.9-5-8.9-9.9L42.6,1025.1
			c-4.4-10.5,0.6-23.3,10.9-27.9c5.5-2.3,11.8-2.2,17.4,0.4c5.2,2.3,8.9,6.4,10.6,11.4l135.1,320.1l93.3-222
			c3.6-7.8,12.2-13.5,20.7-13.5c9.2,0,18,5.6,21.5,13.5l93.3,222l134.3-320.1c2.2-5.3,6.7-9.6,12.3-11.8c5.3-2.1,11-2.1,15.7,0.1
			c5.2,2.2,9.3,6.3,11.6,11.6c2.2,5.3,2.3,11.1,0.1,16.4l-153.3,365.2c-1.8,4.4-4.4,7.9-8,10.7c-4.3,3.1-7.7,4.5-11,4.5l-4.4,0
			c-6.8-0.8-15-6-17.1-13.3l-0.7-0.7l-94.2-224l-93.4,223.2l-0.2,0.2c-0.2,0.2-0.4,0.5-0.4,0.6v0.2l-0.1,0.2
			C233.8,1400.4,224.6,1405.6,217.6,1405.6z M61.7,998.5c-2.4,0-4.8,0.5-7,1.4c-8.8,4-13.1,15-9.3,24l154.1,366.9
			c1.8,4.3,4.2,7,7.6,8.4l0.3,0.1l0.2,0.2c0.7,0.7,1.3,1.3,2.6,1.4l0.2,0l0.2,0.1c2.3,0.8,4.7,1.6,7,1.6c5.9,0,13.7-4.6,16.1-11.4
			c0.1-1,0.7-1.8,1-2.2l96-229.3l96.8,230l0.9,0.9l0.1,0.4c1.6,6.2,8.7,10.7,14.5,11.5h4.1c2.7,0,5.5-1.2,9.2-3.9
			c3.1-2.5,5.4-5.6,7-9.5l153.3-365.2c1.9-4.5,1.8-9.5-0.1-14c-1.9-4.6-5.5-8.1-10-10c-4-1.8-8.9-1.8-13.4,0
			c-4.9,1.9-8.7,5.6-10.6,10.1l-137.1,326.7l-96.1-228.6c-3-6.9-10.7-11.7-18.7-11.7c-7.3,0-14.9,4.9-17.9,11.7l-96.1,228.5
			L78.7,1009.9c-1.4-4.2-4.6-7.6-9-9.6C67.1,999.1,64.4,998.5,61.7,998.5z"/>
	</g>
</g>
<g>
	<g>
		<path d="M649,1202.5c0-113.9,88.8-206.1,199.4-206.1c105.6,0,189.3,83.8,197.7,191v0.8v2.5c0,10.9-9.2,18.4-20.1,18.4H689.2
			c4.2,89.6,74.6,157.5,159.2,157.5c54.5,0,104.7-28.5,132.4-74.6c5.9-10.1,18.4-11.7,26.8-6.7c9.2,6.7,12.6,18.4,6.7,28.5
			c-35.2,56.1-96.3,93-165.9,93C737.8,1406.9,649,1314.8,649,1202.5z M691.7,1169.8h310.8c-13.4-77.1-78.7-133.2-154.1-133.2
			C771.3,1036.6,706.8,1091.9,691.7,1169.8z"/>
		<path d="M848.2,1407.3c-53.4,0-103.6-21.4-141.4-60.2c-37.6-38.7-58.4-90.1-58.4-144.6c0-55.3,20.7-107.2,58.4-146.1
			c37.7-39,88-60.5,141.5-60.5c104.4,0,189.6,82.3,198.2,191.5l0,3.3c0,10.8-8.9,18.9-20.6,18.9H689.7
			c4.4,87.8,74,156.5,158.7,156.5c53.8,0,104.4-28.5,132-74.4c2.6-4.5,6.9-7.7,11.9-9c5.3-1.4,11-0.6,15.6,2.2
			c9.9,7.2,12.7,19.2,6.9,29.2c-36.6,58.4-98.8,93.2-166.3,93.2C848.3,1407.3,848.3,1407.3,848.2,1407.3z M848.4,996.9
			c-109.7,0-198.9,92.2-198.9,205.6c0,54.3,20.6,105.4,58.1,144c37.5,38.6,87.5,59.8,140.6,59.8c0.1,0,0.1,0,0.2,0
			c67.2,0,129-34.7,165.5-92.8c5.6-9.5,2.9-21-6.6-27.8c-4.3-2.6-9.7-3.3-14.8-2c-3.4,0.9-8.1,3.1-11.3,8.6
			c-13.7,22.7-33.1,41.7-56.3,54.8c-23.3,13.1-49.7,20.1-76.5,20.1c-41.2,0-80.3-16.1-110.1-45.3c-30-29.4-47.6-69.4-49.6-112.7
			l0-0.5H1026c11.2,0,19.6-7.7,19.6-17.9v-3.3C1037.1,1078.8,952.3,996.9,848.4,996.9z M1003.1,1170.3h-312l0.1-0.6
			c7.3-37.9,27-72,55.3-96.1c28.4-24.2,64.6-37.5,101.9-37.5c36.6,0,72.4,13.4,100.6,37.8c28.3,24.4,47.5,58.4,54,95.8
			L1003.1,1170.3z M692.3,1169.3h309.6c-13.6-76.6-78.1-132.2-153.5-132.2C771.8,1037.1,707.7,1091.4,692.3,1169.3z"/>
	</g>
</g>
<path d="M2010.9,1438.1c-2,8.1-3.7,15.5-6.1,22.6c-21.2,60.6-63.6,98.3-124.9,115.8c-22.2,6.4-45.1,9.1-68.4,9.1
	c-56.9,0-110.1-14.1-158.3-44.8c-11.4-7.4-21.6-16.8-32.3-25.6c-0.7-0.7-1.3-1.3-2.4-2c-4.4,4-8.8,8.1-13.5,11.8
	c-31.3,26.3-68,42.4-107.8,52.2c-21.6,5.4-43.1,8.8-65.3,8.8c-36.7,0-72.7-5.1-106.1-20.9c-53.2-24.9-85.9-66.3-98.7-123.2
	c0-0.7-0.3-1.3-0.3-2c0-0.3,0-0.7,0-2.4c1.3,1.7,2.4,2.7,3.4,3.7c11.8,13.5,24.2,25.9,39.4,35.7c9.1,5.7,18.9,10.8,29.6,12.1
	c13.8,1.7,26.3-1.7,38.4-8.4c16.2-9.1,31-20.2,45.5-31.3c28.3-22.2,59.3-39.7,95.3-46.1c49.5-9.1,92.6,4.7,129.6,38
	c3.4,3,6.7,6.4,10.1,9.4c5.7-5.1,11.4-11.1,17.5-16.2c27.9-22.6,59.9-34.7,96-34.3c25.6,0.3,49.8,7.4,72.7,18.2
	c20.2,9.8,38.4,22.6,56.2,36.4c12.8,10.1,26.9,18.9,41.1,26.9c19.9,11.4,39.7,9.8,59.3-1.3c16.8-9.8,30.6-22.9,43.4-37
	c1.3-1.3,2.7-3,4-4.4C2009.2,1438.7,2009.5,1438.7,2010.9,1438.1z"/>
<path d="M2151,1338.5c0.9,13.5,2.1,27,2.4,40.9c1.5,60.4-6.9,119.6-24.9,177.3c-7.8,24.3-16.8,48.1-28.5,70.6
	c-7.2,13.8-16.2,26.7-24.3,40.6c-13.8,23.4-27,47.5-37.6,72.7c-6.3,15.3-8.7,31.2-10.8,47.2c-4.2,28.8-8.1,57.7-12.6,86.5
	c-1.8,11.7-5.7,22.8-11.7,33.3c-1.2,2.1-2.4,3.9-4.2,6.6c-1.5-22.2-0.9-43.6-7.8-64c-5.7,69.7-37.3,125.6-88.9,171.2
	c4.8-16.5,10.8-32.4,12.6-49.9c-21.9,48.1-47.8,93.4-86.2,130.7c0.3-6.6,0.9-12.9,0.9-19.2s-0.9-12.6-1.5-19.5
	c-4.2,4.2-8.4,7.5-11.7,11.4c-13.5,16.2-26.7,32.7-40,49.3c-12,14.7-25.5,27.6-41.5,37.9c-8.4,5.4-17.7,6.9-27.6,7.5
	c-15,0.6-30,2.4-44.8,6.6c-5.1,1.5-10.5,3-13.8,7.8c-8.7-7.8-15-17.4-29.7-17.4c-14.4,0-21,9-29.4,17.1c-7.2-7.5-17.1-9-26.7-10.5
	c-13.8-2.1-27.9-2.7-41.8-4.8c-5.1-0.6-10.2-2.4-14.4-4.8c-18-9.6-32.7-23.4-45.1-39.7c-14.7-19.5-30-38.8-46.9-56.5
	c-1.2-1.5-2.4-3-3.9-4.2c-2.4,12.9-3.6,25.5-1.5,38.5c-38.5-36.7-64-81.4-85.9-128.9c1.8,16.8,7.5,32.4,12.3,48.4
	c-51.7-45.4-82.9-101.2-89.2-170.9c-0.9,3.6-2.4,6.9-2.7,10.5c-1.5,15.6-2.7,30.9-4.2,46.6c-0.3,1.8-0.3,3.9-0.3,5.7
	c-0.3,0-0.6,0.3-1.2,0.3c-2.7-5.1-5.4-9.9-7.8-15.3c-6.3-15.3-9.6-31.8-11.7-48.1c-3.6-25.5-6.9-51.4-10.2-77.2
	c-2.7-20.1-10.8-38.5-19.5-56.5c-14.1-28.5-30.9-55.3-46.9-82.6c-8.7-14.7-15.3-30.6-21.6-46.6c-17.7-44.8-28.2-91.3-33-139.4
	c-3.3-31.5-3.9-63.1-1.2-94.6c0.3-5.1,0.9-9.9,1.8-15.9c2.4,27,13.8,49.6,26.7,71.5c17.4,29.7,38.5,57.1,60.7,83.5
	c0.9,0.9,2.1,1.8,3,2.7c33.3,21.9,64.3,46.6,92.2,75.1c19.2,19.5,36.7,40.9,49,65.8c3,6.3,5.4,12.9,7.8,19.5
	c0.9,2.1,1.8,3.3,3.9,4.2c31.5,13.5,62.2,28.8,89.8,49.6c8.7,6.3,16.5,13.8,24.3,21.3c6,5.7,10.2,13.2,13.5,21
	c4.5,10.5,11.4,18.6,23.4,20.4c7.8,1.2,14.4-1.5,21-5.4c12.9-7.5,23.1-18,31.8-29.7c7.8-10.2,14.7-21,22.5-31.5
	c3.6-5.1,7.5-10.5,12.3-14.7c9.9-9,22.2-10.2,33.6-3.3c5.7,3.6,10.8,8.1,16.2,12.3c3.3-2.7,6.6-6.3,10.2-9
	c15.9-11.7,31.5-9.9,44.2,5.4c3.9,4.5,7.2,9.6,10.5,14.7c10.8,16.5,22.5,32.4,37.3,46c6.9,6.3,14.4,11.7,23.7,14.4
	c9.9,3,18.9,0.6,25.8-6.9c3-3.3,6-6.9,7.5-11.1c5.7-14.4,15.6-25.5,27.3-35.1c22.5-18.9,48.1-33,74.2-46c9-4.5,18.6-8.4,27.6-12.9
	c1.2-0.6,2.4-1.5,2.7-2.7c8.1-26.4,23.7-48.4,41.5-69.1c29.1-33.6,63.4-61.9,100.3-87.1c6.6-4.5,12.6-9.6,17.7-15.9
	c22.5-27.6,43.9-56.2,60.7-87.7c8.4-15.9,15.9-32.4,18.9-50.5c0.3-2.4,0.6-4.5,0.6-6.9C2150.4,1338.5,2150.7,1338.5,2151,1338.5z"/>
<g>
	<path class="st0" d="M822,1322.6c0-532.4,0-1064.8,0-1597.6c531.1,0,1062.4,0,1594.1,0c0,532.3,0,1064.9,0,1597.6
		C1885,1322.6,1353.6,1322.6,822,1322.6z M1621.8,35.5c-13.5,0-26.9-0.4-40.4,0.1c-80.9,2.5-159.7,16-233.6,50.1
		c-110.8,51.1-179.4,136.6-205.9,256c-13.4,60.4-9.5,121.6-10.6,182.6c-0.2,9.8,5.7,12.2,12.7,14.6c54.9,18.4,109.3,38.3,164.8,54.7
		c87,25.7,175.6,44.4,266.4,50.1c84.4,5.2,167.3-5.1,249.7-23.1c93.8-20.5,184.9-49,273.3-86.1c5.1-2.1,12.4-8.4,12.2-12.6
		c-2-55.8,0.6-112.6-9.2-167.1c-23.7-132.4-102.6-223.1-226-275.4C1794.3,45,1708.9,34.6,1621.8,35.5z M1094.3,1005.1
		c17.1-61.9,29.5-83.6,68.2-104.3c28-15.1,57.6-28.4,88-37.8c88.3-27.2,180-34.9,271.6-36.6c93.1-1.7,186.4,1.2,279.4,5.9
		c72.5,3.6,144.2,16.1,212.3,42.5c59.5,23,114,52.2,122.2,126.9c12.8-3.1,25.4-5.7,37.7-9.2c66.4-18.8,128.8-45,178.9-94.9
		c62.7-62.5,73-150,21.9-221.8c-44.4-62.4-103.5-97.9-183-77.4c-48.5,12.5-96.2,28.3-143.4,45c-116.4,41.1-235.7,68.1-359.2,72.1
		c-65.6,2.1-131.5,0.2-197.1-3c-83.4-4.1-165.8-17.8-245.7-42.2c-60.8-18.5-120.3-41.2-180.5-61.6c-30-10.2-60.6-18.9-92.7-11.3
		c-70.6,16.7-132.5,91.1-137.4,166.7c-5.1,78.5,34.6,134,96.2,176.4C980.5,974.5,1035.9,992.6,1094.3,1005.1z"/>
	<path d="M1621.8,35.5c87.1-0.8,172.5,9.6,253.5,43.9c123.3,52.3,202.3,143,226,275.4c9.8,54.5,7.2,111.3,9.2,167.1
		c0.2,4.1-7.1,10.4-12.2,12.6c-88.5,37.1-179.6,65.6-273.3,86.1c-82.4,18-165.3,28.3-249.7,23.1c-90.8-5.6-179.4-24.4-266.4-50.1
		c-55.5-16.4-109.9-36.3-164.8-54.7c-7.1-2.4-12.9-4.7-12.7-14.6c1.1-61-2.8-122.2,10.6-182.6c26.5-119.4,95.1-204.9,205.9-256
		c73.9-34.1,152.7-47.6,233.6-50.1C1594.9,35.1,1608.3,35.5,1621.8,35.5z"/>
	<path d="M1094.3,1005.1c-58.4-12.6-113.9-30.6-162.8-64.3c-61.5-42.5-101.2-97.9-96.2-176.4c4.9-75.6,66.8-150,137.4-166.7
		c32.1-7.6,62.7,1.2,92.7,11.3c60.2,20.4,119.7,43,180.5,61.6c79.9,24.4,162.3,38,245.7,42.2c65.6,3.3,131.5,5.1,197.1,3
		c123.5-4,242.8-31,359.2-72.1c47.2-16.7,94.9-32.5,143.4-45c79.6-20.5,138.6,14.9,183,77.4c51.1,71.8,40.8,159.3-21.9,221.8
		c-50.1,49.9-112.5,76.1-178.9,94.9c-12.3,3.5-24.9,6.1-37.7,9.2c-8.2-74.7-62.7-103.9-122.2-126.9
		c-68.2-26.4-139.9-38.9-212.3-42.5c-93-4.7-186.3-7.6-279.4-5.9c-91.6,1.6-183.3,9.4-271.6,36.6c-30.4,9.4-60,22.7-88,37.8
		C1123.9,921.5,1111.5,943.2,1094.3,1005.1z"/>
</g>
</svg>
