<?xml version="1.0" encoding="utf-8"?>
<!-- Generator: Adobe Illustrator 21.0.2, SVG Export Plug-In . SVG Version: 6.00 Build 0)  -->
<svg version="1.1" id="Слой_1" xmlns="http://www.w3.org/2000/svg" xmlns:xlink="http://www.w3.org/1999/xlink" x="0px" y="0px"
	 viewBox="0 0 5000 3884.2" style="enable-background:new 0 0 5000 3884.2;" xml:space="preserve">
<style type="text/css">
	.st0{display:none;fill:#FFFFFF;}
</style>
<g>
	<g>
		<path d="M786.6,1728.9h113.5l-224.8,631.4L474.4,2022l-206.2,338.3L46,1727.9l118.3-0.5l144.9,357l165.7-272.3l161.4,271.2
			L786.6,1728.9z"/>
	</g>
	<g>
		<path d="M1054.8,1989h553.6v108.7h-553.6V2249h553.6v108.7H944V1729h663.9v108.7h-553.1V1989z"/>
	</g>
	<g>
		<path d="M2455.9,1521.3H2603v835.8h-147.1v-27.2c-45,18.9-95.5,27.2-149.8,27.2c-2.2,0-4.4,0-6.1,0h-262
			c-102.7,0-179.3-20-230.9-61c-33.3-29.4-57.7-66-70.5-109.3c-5-21.1-8.3-41.1-8.3-58.8v-170.9c0-96.6,46.1-164.8,139.3-204.8
			l1.1-1.1c53.3-17.8,109.9-27.2,168.7-27.2h252c63.8,0,119.3,10.5,167,31.6L2455.9,1521.3L2455.9,1521.3z M2302.8,2212.8
			c1.1,0,2.2,0,3.3,0c33.3,0,64.9-4.4,92.1-13.9c35.5-14.4,52.2-40,52.2-77.7v-155.4c-1.1-16.6-7.2-33.3-18.9-50.5
			c-23.9-31.6-72.1-46.1-142.6-46.1h-252c-33.3,0-66,4.4-98.8,14.4c-22.2,7.2-38.8,17.8-48.3,29.4c-10.5,13.9-15.5,30.5-15.5,51.6
			v157.1c0,6.1,1.1,13.9,4.4,23.3c6.1,17.8,16.6,31.6,32.7,42.7c26.1,15.5,68.3,23.9,126,23.9h265.3L2302.8,2212.8L2302.8,2212.8z"
			/>
		<path d="M2638,2392.1h-217.1v-13.7c-35.2,9.1-73.6,13.7-114.8,13.7H2038c-111.9,0-194.6-22.4-252.7-68.6l-1.4-1.2
			c-39.3-34.7-66.5-77-80.9-125.6l-0.3-0.9l-0.2-0.9c-6.2-26.2-9.2-48.1-9.2-66.9v-170.9c0-55.3,13.7-103.5,40.7-143.3
			c25.8-38,64-68.6,113.4-90.9l2.3-2.3l7.8-2.6c57.6-19.2,118.1-29,179.8-29h252c47.8,0,91.9,5.7,131.9,17l-0.5-219.7H2638V2392.1z
			 M2490.9,2322.1h77.1v-765.8h-77l0.5,253.1l-49.3-21.8c-42.9-19-94.3-28.6-152.8-28.6h-252c-51.5,0-102,7.7-150.3,23l-5.7,2.4
			c-80.6,34.6-118.1,89.4-118.1,172.6V2128c0,13,2.3,29.3,7.1,49.8c10.6,35.2,30.5,66,59.1,91.5c44.6,35.1,114.8,52.8,208.4,52.8
			h268.1c51.7,0,97.6-8.2,136.2-24.5l48.6-20.4V2322.1z M2306.1,2247.8h-35.5l-0.1-1.2h-233.1c-63.3,0-111.7-9.7-143.9-28.8l-1-0.6
			l-1-0.7c-22.3-15.4-37.3-35-45.9-60c-4.2-12-6.3-23.7-6.3-34.8v-157.1c0-28.8,7.4-52.6,22.6-72.7l0.9-1.1
			c14.3-17.4,36.6-31.4,64.6-40.5l0.6-0.2c35.1-10.7,70.8-15.9,109-15.9h252c84.2,0,140,19.6,170.5,60l1,1.4
			c15,22,23.4,44.9,24.9,67.9l0.1,1.2v156.6c0,52.4-25.6,90.5-74,110.1l-1.6,0.6C2379.6,2242.5,2344.7,2247.8,2306.1,2247.8z
			 M1930.3,2158.2c12.6,7.1,42.7,18.4,107.1,18.4h296.4c19.2-1.7,36.9-5.2,52.1-10.5c21.3-8.8,29.6-21.5,29.6-44.9v-154.1
			c-0.9-10-4.9-20.3-12.3-31.3c-16.3-20.7-55.7-31.6-114.2-31.6h-252c-31.1,0-60,4.2-88.3,12.8c-20.2,6.6-28.7,14.7-31.3,17.7
			c-3.8,5.2-8,13.4-8,29.9v157.1c0,1.8,0.3,5.7,2.4,11.7l0.1,0.2C1915.4,2144.1,1921,2151.5,1930.3,2158.2z"/>
	</g>
	<g>
		<path d="M3107.8,2357.2h-267.6c-2.2,0-4.4,0-6.1,0c-55.5,0-108.2-9.4-154.3-29.4v29.4h-147.1v-836h147.1v235.9
			c48.3-22.2,106-33.3,171-33.3h257c58.8,0,114.4,9.4,168.8,27.2l1.1,1.1c42.7,16.7,75.5,41.1,99.9,71.6
			c29.4,37.7,43.9,81.6,43.9,134.3v171c0,17.8-2.2,36.6-8.3,57.7c-12.8,42.7-35.5,79.9-70.5,108.2
			C3290.4,2336.1,3211.6,2357.2,3107.8,2357.2z M2850.8,1868.7c-72.2,0-121.6,15.5-147.1,47.2c-11.7,16.7-17.8,32.8-20,50.5v155.4
			c0,36.6,18.9,62.7,54.4,76.6c28.3,9.4,61.1,14.4,95.5,14.4c1.1,0,2.2,0,3.3,0h270.9c58.8,0,102.7-8.3,129.9-26.1
			c15.5-10.5,26.1-23.9,32.8-42.2c3.3-9.4,5-16.7,4.4-23.3v-156.5c0-21.1-5-37.7-15.5-51.6c-9.4-11.7-27.2-22.2-50.5-30.5
			c-33.3-9.4-67.2-14.4-100.5-14.4h-257.6L2850.8,1868.7L2850.8,1868.7z"/>
		<path d="M3107.8,2392.2h-273.7c-42.6,0-82.5-5.1-119.3-15.2v15.2h-217.1v-906h217.1v220.6c41-12,86.5-18,136-18h257
			c61.4,0,120.2,9.5,179.7,28.9l7.9,2.6l2,2c43.8,18.3,79.9,45.1,107.5,79.5l0.3,0.3c34.5,44.3,51.3,95.2,51.3,155.8v171
			c0,22.8-3.2,44.9-9.7,67.4l-0.1,0.3c-15.5,51.7-43.1,93.9-82,125.4l-0.3,0.3C3305.6,2368.7,3219.2,2392.2,3107.8,2392.2z
			 M2644.8,2274.5l48.9,21.2c40.5,17.6,87.8,26.5,140.4,26.5h273.7c95.2,0,166.9-18.4,213.1-54.7c27.6-22.4,47.4-52.9,58.8-90.7
			c4.7-16.3,6.9-31.5,6.9-47.8v-171c0-44.3-11.9-81.1-36.4-112.6c-21.2-26.5-49.9-46.9-85.2-60.7l-6.8-2.7l-0.3-0.3
			c-49.7-15.4-98.9-23-150.1-23h-257c-60.3,0-112.9,10.1-156.4,30.1l-49.6,22.8v-255.5h-77.1v766h77.1V2274.5z M3107.8,2247.8
			h-274.2c-37.8,0-74.7-5.6-106.5-16.2l-1.7-0.6c-24.2-9.5-43.1-23.6-56.2-42c-13.5-19-20.4-41.6-20.4-67.1v-157.6l0.3-2.2
			c3-23.8,11.5-45.4,26.1-66.3l0.7-1l0.7-0.9c17-21.2,41.5-36.9,72.7-46.9c19.3-6.1,41.6-10.2,66.7-12.1v-1.8h292.6
			c36.1,0,73.1,5.3,110,15.7l1.1,0.3l1.1,0.4c30.4,10.8,52.6,24.8,66,41.5l0.6,0.8c15.2,20.1,22.6,43.9,22.6,72.7v155.2
			c0.8,13.5-2.7,25.8-6.4,36.2l-0.2,0.4c-9.2,25-24.2,44.4-46,59.1l-0.5,0.3C3224.2,2237.4,3175.4,2247.8,3107.8,2247.8z
			 M2750,2165.5c24.7,8.1,53.5,12.3,83.6,12.3h274.2c65.4,0,96.2-11,110.5-20.2c9.4-6.4,15.2-13.9,19.3-24.9c2-5.7,2.4-8,2.4-8.7
			l-0.1-1.2v-158.1c0-16.6-4.2-24.8-8-30c-1.9-2.2-10-10.2-33.6-18.7c-30.4-8.5-60.6-12.8-89.8-12.8h-222.6v0.5h-35
			c-59.7,0-100.8,11.5-119.1,33.3c-7.2,10.5-11.3,20.5-13,31.8v153C2718.7,2143.3,2728.4,2156.8,2750,2165.5z M3240,2123.8
			C3240,2123.8,3240,2123.8,3240,2123.8C3240,2123.8,3240,2123.8,3240,2123.8z"/>
	</g>
	<g>
		<path d="M3651.1,1989h553.6v108.7h-553.6V2249h553.6v108.7h-663.9V1729h663.9v108.7h-553.6V1989z"/>
	</g>
	<g>
		<path d="M4590.4,2142.9l239.8-414h120.4l-359.7,631.4l-58.6-103.9l-302.6-527.5h121.5L4590.4,2142.9z"/>
	</g>
</g>
<path d="M3542.3,2252c1.6,24.6,3.8,49.2,4.4,74.3c2.7,109.9-12.6,217.5-45.4,322.5c-14.2,44.3-30.6,87.5-51.9,128.4
	c-13.1,25.1-29.5,48.6-44.3,73.8c-25.1,42.6-49.2,86.4-68.3,132.3c-11.5,27.9-15.9,56.8-19.7,85.8c-7.7,52.5-14.8,104.9-23,157.4
	c-3.3,21.3-10.4,41.5-21.3,60.7c-2.2,3.8-4.4,7.1-7.7,12c-2.7-40.4-1.6-79.3-14.2-116.4c-10.4,126.8-67.8,228.5-161.8,311.6
	c8.7-30.1,19.7-59,23-90.7c-39.9,87.5-86.9,170-156.9,237.8c0.5-12,1.6-23.5,1.6-35s-1.6-23-2.7-35.5c-7.7,7.7-15.3,13.7-21.3,20.8
	c-24.6,29.5-48.6,59.6-72.7,89.6c-21.9,26.8-46.5,50.3-75.4,68.9c-15.3,9.8-32.2,12.6-50.3,13.7c-27.3,1.1-54.7,4.4-81.4,12
	c-9.3,2.7-19.1,5.5-25.1,14.2c-15.9-14.2-27.3-31.7-54.1-31.7c-26.2,0-38.3,16.4-53.6,31.2c-13.1-13.7-31.2-16.4-48.6-19.1
	c-25.1-3.8-50.8-4.9-76-8.7c-9.3-1.1-18.6-4.4-26.2-8.7c-32.8-17.5-59.6-42.6-82-72.2c-26.8-35.5-54.7-70.5-85.3-102.8
	c-2.2-2.7-4.4-5.5-7.1-7.7c-4.4,23.5-6.6,46.5-2.7,70c-70-66.7-116.4-148.1-156.3-234.5c3.3,30.6,13.7,59,22.4,88
	c-94-82.5-150.9-184.2-162.3-311c-1.6,6.6-4.4,12.6-4.9,19.1c-2.7,28.4-4.9,56.3-7.7,84.7c-0.5,3.3-0.5,7.1-0.5,10.4
	c-0.5,0-1.1,0.5-2.2,0.5c-4.9-9.3-9.8-18-14.2-27.9c-11.5-27.9-17.5-57.9-21.3-87.5c-6.6-46.5-12.6-93.5-18.6-140.5
	c-4.9-36.6-19.7-70-35.5-102.8c-25.7-51.9-56.3-100.6-85.3-150.3c-15.9-26.8-27.9-55.8-39.4-84.7c-32.2-81.4-51.4-166.2-60.1-253.6
	c-6-57.4-7.1-114.8-2.2-172.2c0.5-9.3,1.6-18,3.3-29c4.4,49.2,25.1,90.2,48.6,130.1c31.7,54.1,70,103.9,110.4,152
	c1.6,1.6,3.8,3.3,5.5,4.9c60.7,39.9,117,84.7,167.8,136.6c35,35.5,66.7,74.3,89.1,119.7c5.5,11.5,9.8,23.5,14.2,35.5
	c1.6,3.8,3.3,6,7.1,7.7c57.4,24.6,113.1,52.5,163.4,90.2c15.9,11.5,30.1,25.1,44.3,38.8c10.9,10.4,18.6,24.1,24.6,38.3
	c8.2,19.1,20.8,33.9,42.6,37.2c14.2,2.2,26.2-2.7,38.3-9.8c23.5-13.7,42.1-32.8,57.9-54.1c14.2-18.6,26.8-38.3,41-57.4
	c6.6-9.3,13.7-19.1,22.4-26.8c18-16.4,40.4-18.6,61.2-6c10.4,6.6,19.7,14.8,29.5,22.4c6-4.9,12-11.5,18.6-16.4
	c29-21.3,57.4-18,80.3,9.8c7.1,8.2,13.1,17.5,19.1,26.8c19.7,30.1,41,59,67.8,83.6c12.6,11.5,26.2,21.3,43.2,26.2
	c18,5.5,34.4,1.1,47-12.6c5.5-6,10.9-12.6,13.7-20.2c10.4-26.2,28.4-46.5,49.7-64c41-34.4,87.5-60.1,135-83.6
	c16.4-8.2,33.9-15.3,50.3-23.5c2.2-1.1,4.4-2.7,4.9-4.9c14.8-48.1,43.2-88,75.4-125.7c53-61.2,115.3-112.6,182.6-158.5
	c12-8.2,23-17.5,32.2-29c41-50.3,79.8-102.2,110.4-159.6c15.3-29,29-59,34.4-91.8c0.5-4.4,1.1-8.2,1.1-12.6
	C3541.2,2252,3541.8,2252,3542.3,2252z"/>
<path d="M3179.9,2520.2c-3.2,12.8-5.9,24.5-9.6,35.7c-33.6,95.9-100.7,155.6-197.7,183.3c-35.2,10.1-71.4,14.4-108.2,14.4
	c-90,0-174.2-22.4-250.4-70.9c-18.1-11.7-34.1-26.6-51.2-40.5c-1.1-1.1-2.1-2.1-3.7-3.2c-6.9,6.4-13.9,12.8-21.3,18.6
	c-49.6,41.6-107.6,67.1-170.5,82.6c-34.1,8.5-68.2,13.9-103.4,13.9c-58.1,0-115.1-8-167.8-33c-84.2-39.4-135.9-105-156.1-195
	c0-1.1-0.5-2.1-0.5-3.2c0-0.5,0-1.1,0-3.7c2.1,2.7,3.7,4.3,5.3,5.9c18.6,21.3,38.4,41,62.3,56.5c14.4,9.1,29.8,17.1,46.9,19.2
	c21.8,2.7,41.6-2.7,60.7-13.3c25.6-14.4,49-32,71.9-49.6c44.8-35.2,93.8-62.9,150.8-73c78.3-14.4,146.5,7.5,205.1,60.2
	c5.3,4.8,10.7,10.1,16,14.9c9.1-8,18.1-17.6,27.7-25.6c44.2-35.7,94.8-54.9,151.9-54.3c40.5,0.5,78.9,11.7,115.1,28.8
	c32,15.5,60.7,35.7,89,57.5c20.2,16,42.6,29.8,65,42.6c31.4,18.1,62.9,15.5,93.8-2.1c26.6-15.5,48.5-36.2,68.7-58.6
	c2.1-2.1,4.3-4.8,6.4-6.9C3177.2,2521.2,3177.8,2521.2,3179.9,2520.2z"/>
<g>
	<path class="st0" d="M1101.6,2426.7c0-989,0-1978,0-2967.6c986.6,0,1973.4,0,2961.2,0c0,988.8,0,1978.2,0,2967.6
		C3076.2,2426.7,2089,2426.7,1101.6,2426.7z M2587.2,35.8c-25,0-50-0.7-75,0.1c-150.3,4.7-296.6,29.7-433.9,93.1
		c-205.7,95-333.3,253.8-382.4,475.6c-24.9,112.2-17.7,225.8-19.7,339.2c-0.3,18.3,10.5,22.7,23.6,27
		c102,34.1,203.1,71.1,306.2,101.6c161.6,47.7,326.1,82.6,494.9,93c156.7,9.7,310.8-9.5,463.8-42.9c174.2-38,343.4-91,507.7-159.9
		c9.5-4,23-15.7,22.7-23.4c-3.8-103.6,1-209.1-17.1-310.3c-44.1-245.9-190.7-414.4-419.8-511.5C2907.7,53.6,2749,34.3,2587.2,35.8z
		 M1607.5,1837c31.8-115.1,54.9-155.3,126.6-193.8c52.1-28,107.1-52.8,163.5-70.2c164-50.5,334.4-64.9,504.5-67.9
		c172.9-3.1,346.3,2.3,519.1,11c134.6,6.8,267.8,29.9,394.4,79c110.5,42.8,211.7,97,226.9,235.8c23.8-5.7,47.2-10.5,70-17
		c123.3-34.9,239.2-83.5,332.2-176.3c116.4-116.1,135.6-278.6,40.7-411.9c-82.5-116-192.2-181.8-340-143.7
		c-90,23.2-178.6,52.7-266.4,83.6c-216.2,76.4-437.9,126.6-667.3,133.9c-121.9,3.9-244.3,0.5-366.2-5.6
		c-155-7.7-308-33.1-456.5-78.4c-112.9-34.4-223.4-76.5-335.3-114.4c-55.8-18.9-112.6-35.1-172.2-21
		c-131.2,31-246.2,169.2-255.2,309.6c-9.4,145.9,64.3,248.8,178.6,327.7C1395.9,1780.2,1498.9,1813.7,1607.5,1837z"/>
	<path d="M2587.2,35.8c161.8-1.5,320.4,17.8,470.9,81.6c229.1,97.2,375.7,265.7,419.8,511.5c18.2,101.3,13.3,206.7,17.1,310.3
		c0.3,7.7-13.2,19.4-22.7,23.4c-164.3,68.8-333.5,121.9-507.7,159.9c-153,33.4-307.1,52.6-463.8,42.9
		c-168.7-10.5-333.3-45.3-494.9-93c-103.1-30.4-204.2-67.5-306.2-101.6c-13.1-4.4-23.9-8.8-23.6-27c2-113.3-5.2-227,19.7-339.2
		C1745,382.8,1872.5,224,2078.2,129c137.3-63.4,283.7-88.4,433.9-93.1C2537.2,35.1,2562.2,35.8,2587.2,35.8z"/>
	<path d="M1607.5,1837c-108.6-23.3-211.5-56.8-302.4-119.5c-114.3-78.9-188-181.8-178.6-327.7c9-140.4,124-278.6,255.2-309.6
		c59.6-14.1,116.4,2.2,172.2,21c111.9,37.9,222.4,79.9,335.3,114.4c148.5,45.3,301.5,70.7,456.5,78.4c121.9,6.1,244.3,9.5,366.2,5.6
		c229.4-7.4,451-57.6,667.3-133.9c87.7-31,176.3-60.5,266.4-83.6c147.8-38.1,257.4,27.7,340,143.7c94.9,133.3,75.7,295.8-40.7,411.9
		c-93,92.7-208.9,141.4-332.2,176.3c-22.9,6.5-46.2,11.3-70,17c-15.2-138.8-116.4-193-226.9-235.8c-126.6-49-259.8-72.2-394.4-79
		c-172.8-8.7-346.1-14.1-519.1-11c-170.1,3-340.5,17.4-504.5,67.9c-56.4,17.4-111.4,42.2-163.5,70.2
		C1662.3,1681.8,1639.3,1722,1607.5,1837z"/>
</g>
</svg>
