<?xml version="1.0" encoding="utf-8"?>
<!-- Generator: Adobe Illustrator 21.0.2, SVG Export Plug-In . SVG Version: 6.00 Build 0)  -->
<svg version="1.1" id="Слой_1" xmlns="http://www.w3.org/2000/svg" xmlns:xlink="http://www.w3.org/1999/xlink" x="0px" y="0px"
	 viewBox="0 0 775 465.8" style="enable-background:new 0 0 775 465.8;" xml:space="preserve">
<style type="text/css">
	.st0{display:none;fill:#FFFFFF;}
</style>
<g>
	<path class="st0" d="M197,361.6c0-147.8,0-295.6,0-443.6c147.5,0,295,0,442.6,0c0,147.8,0,295.7,0,443.6
		C492.1,361.6,344.6,361.6,197,361.6z M419.1,4.2c-3.7,0-7.5-0.1-11.2,0c-22.5,0.7-44.3,4.4-64.9,13.9
		c-30.8,14.2-49.8,37.9-57.2,71.1c-3.7,16.8-2.6,33.8-2.9,50.7c0,2.7,1.6,3.4,3.5,4c15.2,5.1,30.4,10.6,45.8,15.2
		c24.2,7.1,48.7,12.3,74,13.9c23.4,1.5,46.5-1.4,69.3-6.4c26-5.7,51.3-13.6,75.9-23.9c1.4-0.6,3.4-2.3,3.4-3.5
		c-0.6-15.5,0.2-31.3-2.6-46.4c-6.6-36.8-28.5-61.9-62.7-76.5C467,6.9,443.2,4,419.1,4.2z M272.6,273.4c4.8-17.2,8.2-23.2,18.9-29
		c7.8-4.2,16-7.9,24.4-10.5c24.5-7.6,50-9.7,75.4-10.2c25.8-0.5,51.8,0.3,77.6,1.6c20.1,1,40,4.5,58.9,11.8
		c16.5,6.4,31.6,14.5,33.9,35.2c3.6-0.9,7-1.6,10.5-2.5c18.4-5.2,35.8-12.5,49.7-26.3c17.4-17.4,20.3-41.6,6.1-61.6
		c-12.3-17.3-28.7-27.2-50.8-21.5c-13.5,3.5-26.7,7.9-39.8,12.5c-32.3,11.4-65.4,18.9-99.7,20c-18.2,0.6-36.5,0.1-54.7-0.8
		c-23.2-1.2-46-4.9-68.2-11.7c-16.9-5.1-33.4-11.4-50.1-17.1c-8.3-2.8-16.8-5.2-25.7-3.1c-19.6,4.6-36.8,25.3-38.1,46.3
		c-1.4,21.8,9.6,37.2,26.7,49C241,264.9,256.4,269.9,272.6,273.4z"/>
	<path d="M419.1,4.2C443.2,4,467,6.9,489.4,16.4c34.2,14.5,56.2,39.7,62.7,76.5c2.7,15.1,2,30.9,2.6,46.4c0,1.1-2,2.9-3.4,3.5
		c-24.6,10.3-49.9,18.2-75.9,23.9c-22.9,5-45.9,7.9-69.3,6.4c-25.2-1.6-49.8-6.8-74-13.9c-15.4-4.5-30.5-10.1-45.8-15.2
		c-2-0.7-3.6-1.3-3.5-4c0.3-16.9-0.8-33.9,2.9-50.7c7.3-33.1,26.4-56.9,57.2-71.1C363.4,8.7,385.3,5,407.8,4.3
		C411.6,4.1,415.3,4.2,419.1,4.2z"/>
	<path d="M272.6,273.4c-16.2-3.5-31.6-8.5-45.2-17.9c-17.1-11.8-28.1-27.2-26.7-49c1.4-21,18.5-41.6,38.1-46.3
		c8.9-2.1,17.4,0.3,25.7,3.1c16.7,5.7,33.2,11.9,50.1,17.1c22.2,6.8,45.1,10.6,68.2,11.7c18.2,0.9,36.5,1.4,54.7,0.8
		c34.3-1.1,67.4-8.6,99.7-20c13.1-4.6,26.4-9,39.8-12.5c22.1-5.7,38.5,4.1,50.8,21.5c14.2,19.9,11.3,44.2-6.1,61.6
		c-13.9,13.9-31.2,21.1-49.7,26.3c-3.4,1-6.9,1.7-10.5,2.5c-2.3-20.7-17.4-28.8-33.9-35.2c-18.9-7.3-38.8-10.8-58.9-11.8
		c-25.8-1.3-51.7-2.1-77.6-1.6c-25.4,0.5-50.9,2.6-75.4,10.2c-8.4,2.6-16.6,6.3-24.4,10.5C280.8,250.2,277.4,256.2,272.6,273.4z"/>
</g>
<path d="M566.3,407c-0.8,3.1-1.4,5.9-2.3,8.6c-8.1,23.1-24.3,37.5-47.7,44.2c-8.5,2.4-17.2,3.5-26.1,3.5c-21.7,0-42-5.4-60.4-17.1
	c-4.4-2.8-8.2-6.4-12.3-9.8c-0.3-0.3-0.5-0.5-0.9-0.8c-1.7,1.5-3.3,3.1-5.1,4.5c-12,10-26,16.2-41.1,19.9
	c-8.2,2.1-16.5,3.3-24.9,3.3c-14,0-27.8-1.9-40.5-8c-20.3-9.5-32.8-25.3-37.7-47.1c0-0.3-0.1-0.5-0.1-0.8c0-0.1,0-0.3,0-0.9
	c0.5,0.6,0.9,1,1.3,1.4c4.5,5.1,9.3,9.9,15,13.6c3.5,2.2,7.2,4.1,11.3,4.6c5.3,0.6,10-0.6,14.7-3.2c6.2-3.5,11.8-7.7,17.4-12
	c10.8-8.5,22.6-15.2,36.4-17.6c18.9-3.5,35.4,1.8,49.5,14.5c1.3,1.2,2.6,2.4,3.9,3.6c2.2-1.9,4.4-4.2,6.7-6.2
	c10.7-8.6,22.9-13.2,36.6-13.1c9.8,0.1,19,2.8,27.8,6.9c7.7,3.7,14.7,8.6,21.5,13.9c4.9,3.9,10.3,7.2,15.7,10.3
	c7.6,4.4,15.2,3.7,22.6-0.5c6.4-3.7,11.7-8.7,16.6-14.1c0.5-0.5,1-1.2,1.5-1.7C565.7,407.2,565.8,407.2,566.3,407z"/>
<g>
	<g>
		<path d="M284.1,318.6c0-8.7,1.6-16.8,4.9-24.5s7.7-14.3,13.3-19.9c5.6-5.6,12.2-10,19.8-13.3c7.6-3.3,15.8-4.9,24.6-4.9
			c10,0,19.4,2.3,28.3,6.9c8.8,4.6,16.1,10.6,21.8,18.1v-47.5h12.5v85c0,8.8-1.6,17-4.9,24.6s-7.7,14.2-13.3,19.8
			c-5.6,5.6-12.2,10-19.9,13.3c-7.7,3.3-15.8,4.9-24.5,4.9c-8.8,0-17-1.6-24.6-4.9s-14.2-7.7-19.8-13.3c-5.6-5.6-10-12.2-13.3-19.8
			C285.7,335.6,284.1,327.4,284.1,318.6z M296.6,318.6c0,6.8,1.3,13.3,4,19.4s6.3,11.4,10.8,15.9s9.8,8.1,15.9,10.8
			c6.1,2.7,12.5,4,19.4,4c6.8,0,13.3-1.3,19.4-4s11.4-6.3,15.9-10.8s8.1-9.8,10.8-15.9c2.7-6.1,4-12.5,4-19.4c0-6.8-1.3-13.3-4-19.4
			s-6.3-11.4-10.8-15.9s-9.8-8.1-15.9-10.8c-6.1-2.7-12.5-4-19.4-4c-6.8,0-13.3,1.3-19.4,4s-11.4,6.3-15.9,10.8s-8.1,9.8-10.8,15.9
			C297.9,305.3,296.6,311.8,296.6,318.6z"/>
	</g>
</g>
<g>
	<g>
		<path d="M488.6,255.8c8.7,0,16.8,1.6,24.5,4.9c7.7,3.3,14.3,7.7,19.9,13.3c5.6,5.6,10,12.2,13.3,19.9c3.3,7.7,4.9,15.8,4.9,24.5
			c0,8.8-1.6,17-4.9,24.6c-3.3,7.6-7.7,14.2-13.3,19.8c-5.6,5.6-12.2,10-19.9,13.3s-15.8,4.9-24.5,4.9c-8.8,0-17-1.6-24.6-4.9
			s-14.2-7.7-19.8-13.3c-5.6-5.6-10-12.2-13.3-19.8c-3.3-7.6-4.9-15.8-4.9-24.6v-85h12.5v47.5c5.7-7.5,12.9-13.5,21.8-18.1
			C469.2,258.1,478.6,255.8,488.6,255.8z M488.6,368.3c6.8,0,13.3-1.3,19.4-4c6.1-2.7,11.4-6.3,15.9-10.8s8.1-9.8,10.8-15.9
			s4-12.5,4-19.4c0-6.8-1.3-13.3-4-19.4s-6.3-11.4-10.8-15.9s-9.8-8.1-15.9-10.8c-6.1-2.7-12.5-4-19.4-4c-6.8,0-13.3,1.3-19.4,4
			s-11.4,6.3-15.9,10.8s-8.1,9.8-10.8,15.9c-2.7,6.1-4,12.5-4,19.4c0,6.8,1.3,13.3,4,19.4s6.3,11.4,10.8,15.9s9.8,8.1,15.9,10.8
			C475.3,366.9,481.8,368.3,488.6,368.3z"/>
		<path d="M488.6,391c-10.2,0-19.8-1.9-28.6-5.7c-8.8-3.8-16.5-9-22.9-15.4c-6.4-6.4-11.6-14.1-15.4-22.9
			c-3.8-8.8-5.7-18.4-5.7-28.6v-95h32.5v34.7c2.3-1.5,4.7-2.9,7.2-4.2c10.2-5.4,21.3-8.1,32.9-8.1c10.2,0,19.5,1.9,28.4,5.7
			c8.8,3.8,16.6,9,23,15.4s11.6,14.2,15.4,23c3.8,9,5.7,18.3,5.7,28.4c0,10.2-1.9,19.8-5.7,28.6c-3.8,8.8-9,16.5-15.4,22.9
			c-6.4,6.4-14.2,11.6-23,15.4C508.1,389.1,498.8,391,488.6,391z M473.2,355.1c5,2.1,10.1,3.2,15.4,3.2c5.5,0,10.6-1.1,15.4-3.1
			c4.9-2.2,9.3-5.1,12.9-8.7c3.6-3.6,6.5-7.9,8.7-12.9c2.1-4.8,3.1-9.8,3.1-15.4c0-5.5-1.1-10.6-3.1-15.4c-2.2-4.9-5.1-9.3-8.7-12.9
			c-3.6-3.6-7.9-6.5-12.9-8.7c-4.8-2.1-9.8-3.1-15.4-3.1c-5.5,0-10.6,1.1-15.4,3.1c-4.9,2.2-9.3,5.1-12.9,8.7
			c-3.6,3.6-6.5,7.9-8.7,12.9c-2.1,4.8-3.1,9.8-3.1,15.4c0,5.5,1.1,10.6,3.1,15.4c2.2,4.9,5.1,9.3,8.7,12.9
			C464,350,468.3,352.9,473.2,355.1z"/>
	</g>
</g>
<g>
	<g>
		<path d="M566.8,316.9c0-29.9,23.3-54.1,52.4-54.1c27.7,0,49.7,22,51.9,50.2v0.2v0.7c0,2.9-2.4,4.8-5.3,4.8h-88.4
			c1.1,23.5,19.6,41.4,41.8,41.4c14.3,0,27.5-7.5,34.8-19.6c1.5-2.6,4.8-3.1,7-1.8c2.4,1.8,3.3,4.8,1.8,7.5
			c-9.2,14.7-25.3,24.4-43.6,24.4C590.1,370.6,566.8,346.4,566.8,316.9z M578,308.3h81.6c-3.5-20.2-20.7-35-40.5-35
			C598.9,273.3,581.9,287.9,578,308.3z"/>
	</g>
</g>
<g>
	<g>
		<path d="M720,368.7c-0.7-0.7-1.3-1.3-1.8-2.4l-40.5-96.4c-1.1-2.6,0.2-5.7,2.6-6.8c2.6-1.1,5.9,0.2,6.8,2.9l35.9,84.9l35.9-84.9
			c0.9-2.6,4.2-4,6.8-2.9s3.7,4.2,2.6,6.8L728,365.4c-0.2,0.9-0.7,1.8-1.3,2.6c-0.9,1.1-2.4,1.5-3.5,1.5c-0.7,0-1.1,0-1.8-0.2
			c-0.2,0-0.2,0-0.4-0.2C720.7,369.1,720.4,368.9,720,368.7z"/>
	</g>
</g>
<g>
	<g>
		<path d="M47.5,379.1c-1.1-0.4-1.8-1.3-2.2-2.4L4.9,280.3c-1.1-2.6,0.2-5.7,2.6-6.8c2.6-1.1,5.9,0.2,6.8,2.9l35.9,84.9L75,302.1
			c0.9-2,3.1-3.3,5.1-3.3c2.2,0,4.4,1.3,5.3,3.3l24.9,59.2l35.6-84.9c1.1-2.6,4.4-4,6.8-2.9c2.6,1.1,4,4.2,2.9,6.8l-40.3,95.9
			c-0.4,1.1-1.1,2-2,2.6c-0.9,0.7-1.8,1.1-2.6,1.1h-0.4h-0.7c-1.8-0.2-3.7-1.5-4.2-3.3l-0.2-0.2l-25.1-59.6l-24.9,59.4
			c0,0-0.2,0.2-0.2,0.4c-0.7,2-2.9,3.3-4.6,3.3c-0.7,0-1.3-0.2-2-0.4C48,379.6,47.8,379.3,47.5,379.1z"/>
	</g>
</g>
<g>
	<g>
		<path d="M163.8,327.1c0-29.9,23.3-54.1,52.4-54.1c27.7,0,49.7,22,51.9,50.2v0.2v0.7c0,2.9-2.4,4.8-5.3,4.8h-88.4
			c1.1,23.5,19.6,41.4,41.8,41.4c14.3,0,27.5-7.5,34.8-19.6c1.5-2.6,4.8-3.1,7-1.8c2.4,1.8,3.3,4.8,1.8,7.5
			c-9.2,14.7-25.3,24.4-43.6,24.4C187.1,380.8,163.8,356.6,163.8,327.1z M175,318.5h81.6c-3.5-20.2-20.7-35-40.5-35
			C195.9,283.5,178.9,298.1,175,318.5z"/>
	</g>
</g>
</svg>
