<?xml version="1.0" encoding="utf-8"?>
<!-- Generator: Adobe Illustrator 21.0.2, SVG Export Plug-In . SVG Version: 6.00 Build 0)  -->
<svg version="1.1" id="Слой_1" xmlns="http://www.w3.org/2000/svg" xmlns:xlink="http://www.w3.org/1999/xlink" x="0px" y="0px"
	 viewBox="0 0 1648 2219" style="enable-background:new 0 0 1648 2219;" xml:space="preserve">
<style type="text/css">
	.st0{stroke:#000000;stroke-width:2;stroke-miterlimit:10;}
	.st1{display:none;fill:#FFFFFF;}
</style>
<g>
	<path class="st0" d="M307.2,1170.1c0-33,6.2-64.1,18.6-93.3c12.4-29.2,29.2-54.4,50.5-75.7s46.3-38.1,75.2-50.5
		c28.9-12.4,60.1-18.6,93.8-18.6c38.1,0,73.9,8.7,107.6,26.2c33.6,17.5,61.2,40.5,82.8,69V846.4h47.6v323.7
		c0,33.6-6.2,64.9-18.6,93.8s-29.2,53.9-50.5,75.2c-21.3,21.3-46.5,38.1-75.7,50.5s-60.3,18.6-93.3,18.6c-33.6,0-64.9-6.2-93.8-18.6
		s-53.9-29.2-75.2-50.5c-21.3-21.3-38.1-46.3-50.5-75.2C313.4,1235,307.2,1203.7,307.2,1170.1z M354.8,1170.1
		c0,26,5.1,50.6,15.2,73.8c10.1,23.2,23.8,43.3,40.9,60.4s37.3,30.8,60.4,40.9c23.2,10.2,47.7,15.2,73.8,15.2
		c26,0,50.6-5.1,73.8-15.2c23.2-10.1,43.3-23.8,60.4-40.9s30.8-37.3,40.9-60.4c10.1-23.2,15.2-47.7,15.2-73.8
		c0-26-5.1-50.6-15.2-73.8c-10.2-23.2-23.8-43.3-40.9-60.4s-37.3-30.8-60.4-40.9c-23.2-10.1-47.8-15.2-73.8-15.2
		s-50.6,5.1-73.8,15.2c-23.2,10.2-43.3,23.8-60.4,40.9c-17.1,17.1-30.8,37.3-40.9,60.4C359.9,1119.5,354.8,1144.1,354.8,1170.1z"/>
</g>
<g>
	<path class="st0" d="M1085.9,930.9c33,0,64.1,6.2,93.3,18.6c29.2,12.4,54.4,29.2,75.7,50.5s38.1,46.5,50.5,75.7
		s18.6,60.3,18.6,93.3c0,33.6-6.2,64.9-18.6,93.8c-12.4,28.9-29.2,53.9-50.5,75.2c-21.3,21.3-46.5,38.1-75.7,50.5
		s-60.3,18.6-93.3,18.6c-33.6,0-64.9-6.2-93.8-18.6s-53.9-29.2-75.2-50.5c-21.3-21.3-38.1-46.3-50.5-75.2
		c-12.4-28.9-18.6-60.1-18.6-93.8V845.3h47.6v180.9c21.6-28.6,49.2-51.6,82.8-69C1012,939.7,1047.8,930.9,1085.9,930.9z
		 M1085.9,1359.3c26,0,50.6-5.1,73.8-15.2c23.2-10.1,43.3-23.8,60.4-40.9s30.8-37.3,40.9-60.4c10.1-23.2,15.2-47.7,15.2-73.8
		c0-26-5.1-50.6-15.2-73.8c-10.2-23.2-23.8-43.3-40.9-60.4s-37.3-30.8-60.4-40.9c-23.2-10.1-47.8-15.2-73.8-15.2
		s-50.6,5.1-73.8,15.2c-23.2,10.2-43.3,23.8-60.4,40.9c-17.1,17.1-30.8,37.3-40.9,60.4c-10.2,23.2-15.2,47.8-15.2,73.8
		s5.1,50.6,15.2,73.8c10.1,23.2,23.8,43.3,40.9,60.4s37.3,30.8,60.4,40.9C1035.3,1354.2,1059.9,1359.3,1085.9,1359.3z"/>
</g>
<path d="M1210.9,1438.1c-2,8.1-3.7,15.5-6.1,22.6c-21.2,60.6-63.6,98.3-124.9,115.8c-22.2,6.4-45.1,9.1-68.4,9.1
	c-56.9,0-110.1-14.1-158.3-44.8c-11.4-7.4-21.6-16.8-32.3-25.6c-0.7-0.7-1.3-1.3-2.4-2c-4.4,4-8.8,8.1-13.5,11.8
	c-31.3,26.3-68,42.4-107.8,52.2c-21.6,5.4-43.1,8.8-65.3,8.8c-36.7,0-72.7-5.1-106.1-20.9c-53.2-24.9-85.9-66.3-98.7-123.2
	c0-0.7-0.3-1.3-0.3-2c0-0.3,0-0.7,0-2.4c1.3,1.7,2.4,2.7,3.4,3.7c11.8,13.5,24.2,25.9,39.4,35.7c9.1,5.7,18.9,10.8,29.6,12.1
	c13.8,1.7,26.3-1.7,38.4-8.4c16.2-9.1,31-20.2,45.5-31.3c28.3-22.2,59.3-39.7,95.3-46.1c49.5-9.1,92.6,4.7,129.6,38
	c3.4,3,6.7,6.4,10.1,9.4c5.7-5.1,11.4-11.1,17.5-16.2c27.9-22.6,59.9-34.7,96-34.3c25.6,0.3,49.8,7.4,72.7,18.2
	c20.2,9.8,38.4,22.6,56.2,36.4c12.8,10.1,26.9,18.9,41.1,26.9c19.9,11.4,39.7,9.8,59.3-1.3c16.8-9.8,30.6-22.9,43.4-37
	c1.3-1.3,2.7-3,4-4.4C1209.2,1438.7,1209.5,1438.7,1210.9,1438.1z"/>
<path d="M1351,1338.5c0.9,13.5,2.1,27,2.4,40.9c1.5,60.4-6.9,119.6-24.9,177.3c-7.8,24.3-16.8,48.1-28.5,70.6
	c-7.2,13.8-16.2,26.7-24.3,40.6c-13.8,23.4-27,47.5-37.6,72.7c-6.3,15.3-8.7,31.2-10.8,47.2c-4.2,28.8-8.1,57.7-12.6,86.5
	c-1.8,11.7-5.7,22.8-11.7,33.3c-1.2,2.1-2.4,3.9-4.2,6.6c-1.5-22.2-0.9-43.6-7.8-64c-5.7,69.7-37.3,125.6-88.9,171.2
	c4.8-16.5,10.8-32.4,12.6-49.9c-21.9,48.1-47.8,93.4-86.2,130.7c0.3-6.6,0.9-12.9,0.9-19.2s-0.9-12.6-1.5-19.5
	c-4.2,4.2-8.4,7.5-11.7,11.4c-13.5,16.2-26.7,32.7-40,49.3c-12,14.7-25.5,27.6-41.5,37.9c-8.4,5.4-17.7,6.9-27.6,7.5
	c-15,0.6-30,2.4-44.8,6.6c-5.1,1.5-10.5,3-13.8,7.8c-8.7-7.8-15-17.4-29.7-17.4c-14.4,0-21,9-29.4,17.1c-7.2-7.5-17.1-9-26.7-10.5
	c-13.8-2.1-27.9-2.7-41.8-4.8c-5.1-0.6-10.2-2.4-14.4-4.8c-18-9.6-32.7-23.4-45.1-39.7c-14.7-19.5-30-38.8-46.9-56.5
	c-1.2-1.5-2.4-3-3.9-4.2c-2.4,12.9-3.6,25.5-1.5,38.5c-38.5-36.7-64-81.4-85.9-128.9c1.8,16.8,7.5,32.4,12.3,48.4
	c-51.7-45.4-82.9-101.2-89.2-170.9c-0.9,3.6-2.4,6.9-2.7,10.5c-1.5,15.6-2.7,30.9-4.2,46.6c-0.3,1.8-0.3,3.9-0.3,5.7
	c-0.3,0-0.6,0.3-1.2,0.3c-2.7-5.1-5.4-9.9-7.8-15.3c-6.3-15.3-9.6-31.8-11.7-48.1c-3.6-25.5-6.9-51.4-10.2-77.2
	c-2.7-20.1-10.8-38.5-19.5-56.5c-14.1-28.5-30.9-55.3-46.9-82.6c-8.7-14.7-15.3-30.6-21.6-46.6c-17.7-44.8-28.2-91.3-33-139.4
	c-3.3-31.5-3.9-63.1-1.2-94.6c0.3-5.1,0.9-9.9,1.8-15.9c2.4,27,13.8,49.6,26.7,71.5c17.4,29.7,38.5,57.1,60.7,83.5
	c0.9,0.9,2.1,1.8,3,2.7c33.3,21.9,64.3,46.6,92.2,75.1c19.2,19.5,36.7,40.9,49,65.8c3,6.3,5.4,12.9,7.8,19.5
	c0.9,2.1,1.8,3.3,3.9,4.2c31.5,13.5,62.2,28.8,89.8,49.6c8.7,6.3,16.5,13.8,24.3,21.3c6,5.7,10.2,13.2,13.5,21
	c4.5,10.5,11.4,18.6,23.4,20.4c7.8,1.2,14.4-1.5,21-5.4c12.9-7.5,23.1-18,31.8-29.7c7.8-10.2,14.7-21,22.5-31.5
	c3.6-5.1,7.5-10.5,12.3-14.7c9.9-9,22.2-10.2,33.6-3.3c5.7,3.6,10.8,8.1,16.2,12.3c3.3-2.7,6.6-6.3,10.2-9
	c15.9-11.7,31.5-9.9,44.2,5.4c3.9,4.5,7.2,9.6,10.5,14.7c10.8,16.5,22.5,32.4,37.3,46c6.9,6.3,14.4,11.7,23.7,14.4
	c9.9,3,18.9,0.6,25.8-6.9c3-3.3,6-6.9,7.5-11.1c5.7-14.4,15.6-25.5,27.3-35.1c22.5-18.9,48.1-33,74.2-46c9-4.5,18.6-8.4,27.6-12.9
	c1.2-0.6,2.4-1.5,2.7-2.7c8.1-26.4,23.7-48.4,41.5-69.1c29.1-33.6,63.4-61.9,100.3-87.1c6.6-4.5,12.6-9.6,17.7-15.9
	c22.5-27.6,43.9-56.2,60.7-87.7c8.4-15.9,15.9-32.4,18.9-50.5c0.3-2.4,0.6-4.5,0.6-6.9C1350.4,1338.5,1350.7,1338.5,1351,1338.5z"/>
<g>
	<path class="st1" d="M22,1322.6C22,790.2,22,257.8,22-275c531.1,0,1062.4,0,1594.1,0c0,532.3,0,1064.9,0,1597.6
		C1085,1322.6,553.6,1322.6,22,1322.6z M821.8,35.5c-13.5,0-26.9-0.4-40.4,0.1c-80.9,2.5-159.7,16-233.6,50.1
		c-110.8,51.1-179.4,136.6-205.9,256c-13.4,60.4-9.5,121.6-10.6,182.6c-0.2,9.8,5.7,12.2,12.7,14.6c54.9,18.4,109.3,38.3,164.8,54.7
		c87,25.7,175.6,44.4,266.4,50.1c84.4,5.2,167.3-5.1,249.7-23.1c93.8-20.5,184.9-49,273.3-86.1c5.1-2.1,12.4-8.4,12.2-12.6
		c-2-55.8,0.6-112.6-9.2-167.1c-23.7-132.4-102.6-223.1-226-275.4C994.3,45,908.9,34.6,821.8,35.5z M294.3,1005.1
		c17.1-61.9,29.5-83.6,68.2-104.3c28-15.1,57.6-28.4,88-37.8c88.3-27.2,180-34.9,271.6-36.6c93.1-1.7,186.4,1.2,279.4,5.9
		c72.5,3.6,144.2,16.1,212.3,42.5c59.5,23,114,52.2,122.2,126.9c12.8-3.1,25.4-5.7,37.7-9.2c66.4-18.8,128.8-45,178.9-94.9
		c62.7-62.5,73-150,21.9-221.8c-44.4-62.4-103.5-97.9-183-77.4c-48.5,12.5-96.2,28.3-143.4,45c-116.4,41.1-235.7,68.1-359.2,72.1
		c-65.6,2.1-131.5,0.2-197.1-3c-83.4-4.1-165.8-17.8-245.7-42.2c-60.8-18.5-120.3-41.2-180.5-61.6c-30-10.2-60.6-18.9-92.7-11.3
		c-70.6,16.7-132.5,91.1-137.4,166.7c-5.1,78.5,34.6,134,96.2,176.4C180.5,974.5,235.9,992.6,294.3,1005.1z"/>
	<path d="M821.8,35.5c87.1-0.8,172.5,9.6,253.5,43.9c123.3,52.3,202.3,143,226,275.4c9.8,54.5,7.2,111.3,9.2,167.1
		c0.2,4.1-7.1,10.4-12.2,12.6c-88.5,37.1-179.6,65.6-273.3,86.1c-82.4,18-165.3,28.3-249.7,23.1c-90.8-5.6-179.4-24.4-266.4-50.1
		c-55.5-16.4-109.9-36.3-164.8-54.7c-7.1-2.4-12.9-4.7-12.7-14.6c1.1-61-2.8-122.2,10.6-182.6c26.5-119.4,95.1-204.9,205.9-256
		c73.9-34.1,152.7-47.6,233.6-50.1C794.9,35.1,808.3,35.5,821.8,35.5z"/>
	<path d="M294.3,1005.1c-58.4-12.6-113.9-30.6-162.8-64.3C70,898.3,30.3,842.9,35.3,764.4c4.9-75.6,66.8-150,137.4-166.7
		c32.1-7.6,62.7,1.2,92.7,11.3c60.2,20.4,119.7,43,180.5,61.6c79.9,24.4,162.3,38,245.7,42.2c65.6,3.3,131.5,5.1,197.1,3
		c123.5-4,242.8-31,359.2-72.1c47.2-16.7,94.9-32.5,143.4-45c79.6-20.5,138.6,14.9,183,77.4c51.1,71.8,40.8,159.3-21.9,221.8
		c-50.1,49.9-112.5,76.1-178.9,94.9c-12.3,3.5-24.9,6.1-37.7,9.2c-8.2-74.7-62.7-103.9-122.2-126.9
		c-68.2-26.4-139.9-38.9-212.3-42.5c-93-4.7-186.3-7.6-279.4-5.9c-91.6,1.6-183.3,9.4-271.6,36.6c-30.4,9.4-60,22.7-88,37.8
		C323.9,921.5,311.5,943.2,294.3,1005.1z"/>
</g>
</svg>
